lab1/waveform.vcd
$version Generated by VerilatedVcd $end
$timescale 1s $end

 $scope module TOP $end
  $var wire  1 \ clk $end
  $var wire 32 ^ r[0] [31:0] $end
  $var wire 32 h r[10] [31:0] $end
  $var wire 32 i r[11] [31:0] $end
  $var wire 32 j r[12] [31:0] $end
  $var wire 32 k r[13] [31:0] $end
  $var wire 32 l r[14] [31:0] $end
  $var wire 32 m r[15] [31:0] $end
  $var wire 32 n r[16] [31:0] $end
  $var wire 32 o r[17] [31:0] $end
  $var wire 32 p r[18] [31:0] $end
  $var wire 32 q r[19] [31:0] $end
  $var wire 32 _ r[1] [31:0] $end
  $var wire 32 r r[20] [31:0] $end
  $var wire 32 s r[21] [31:0] $end
  $var wire 32 t r[22] [31:0] $end
  $var wire 32 u r[23] [31:0] $end
  $var wire 32 v r[24] [31:0] $end
  $var wire 32 w r[25] [31:0] $end
  $var wire 32 x r[26] [31:0] $end
  $var wire 32 y r[27] [31:0] $end
  $var wire 32 z r[28] [31:0] $end
  $var wire 32 { r[29] [31:0] $end
  $var wire 32 ` r[2] [31:0] $end
  $var wire 32 | r[30] [31:0] $end
  $var wire 32 } r[31] [31:0] $end
  $var wire 32 a r[3] [31:0] $end
  $var wire 32 b r[4] [31:0] $end
  $var wire 32 c r[5] [31:0] $end
  $var wire 32 d r[6] [31:0] $end
  $var wire 32 e r[7] [31:0] $end
  $var wire 32 f r[8] [31:0] $end
  $var wire 32 g r[9] [31:0] $end
  $var wire  1 ] start $end
  $scope module SingleCycleCPU $end
   $var wire  1 \ clk $end
   $var wire 32 ^ r[0] [31:0] $end
   $var wire 32 h r[10] [31:0] $end
   $var wire 32 i r[11] [31:0] $end
   $var wire 32 j r[12] [31:0] $end
   $var wire 32 k r[13] [31:0] $end
   $var wire 32 l r[14] [31:0] $end
   $var wire 32 m r[15] [31:0] $end
   $var wire 32 n r[16] [31:0] $end
   $var wire 32 o r[17] [31:0] $end
   $var wire 32 p r[18] [31:0] $end
   $var wire 32 q r[19] [31:0] $end
   $var wire 32 _ r[1] [31:0] $end
   $var wire 32 r r[20] [31:0] $end
   $var wire 32 s r[21] [31:0] $end
   $var wire 32 t r[22] [31:0] $end
   $var wire 32 u r[23] [31:0] $end
   $var wire 32 v r[24] [31:0] $end
   $var wire 32 w r[25] [31:0] $end
   $var wire 32 x r[26] [31:0] $end
   $var wire 32 y r[27] [31:0] $end
   $var wire 32 z r[28] [31:0] $end
   $var wire 32 { r[29] [31:0] $end
   $var wire 32 ` r[2] [31:0] $end
   $var wire 32 | r[30] [31:0] $end
   $var wire 32 } r[31] [31:0] $end
   $var wire 32 a r[3] [31:0] $end
   $var wire 32 b r[4] [31:0] $end
   $var wire 32 c r[5] [31:0] $end
   $var wire 32 d r[6] [31:0] $end
   $var wire 32 e r[7] [31:0] $end
   $var wire 32 f r[8] [31:0] $end
   $var wire 32 g r[9] [31:0] $end
   $var wire  1 ] start $end
   $var wire 32 # w1 [31:0] $end
   $var wire  1 U w10 $end
   $var wire 32 W w11 [31:0] $end
   $var wire 32 X w12 [31:0] $end
   $var wire 32 & w13 [31:0] $end
   $var wire 32 ' w14 [31:0] $end
   $var wire 32 ( w15 [31:0] $end
   $var wire  1 [ w16 $end
   $var wire 32 ~ w18 [31:0] $end
   $var wire 32 Y w19 [31:0] $end
   $var wire 32 $ w2 [31:0] $end
   $var wire 32 !! w20 [31:0] $end
   $var wire 32 "! w21 [31:0] $end
   $var wire  4 N w22 [3:0] $end
   $var wire 32 Z w23 [31:0] $end
   $var wire 32 % w3 [31:0] $end
   $var wire  1 P w4 $end
   $var wire  1 Q w5 $end
   $var wire  1 R w6 $end
   $var wire  2 O w7 [1:0] $end
   $var wire  1 S w8 $end
   $var wire  1 T w9 $end
   $scope module m_ALU $end
    $var wire 32 W A [31:0] $end
    $var wire 32 Y ALUOut [31:0] $end
    $var wire  4 N ALUctl [3:0] $end
    $var wire 32 Z B [31:0] $end
    $var wire  1 [ zero $end
   $upscope $end
   $scope module m_ALUCtrl $end
    $var wire  4 N ALUCtl [3:0] $end
    $var wire  2 O ALUOp [1:0] $end
    $var wire  6 #! combined [5:0] $end
    $var wire  3 * funct3 [2:0] $end
    $var wire  1 ) funct7 $end
   $upscope $end
   $scope module m_Adder_1 $end
    $var wire 32 # a [31:0] $end
    $var wire 32 %! b [31:0] $end
    $var wire 32 $ sum [31:0] $end
   $upscope $end
   $scope module m_Adder_2 $end
    $var wire 32 # a [31:0] $end
    $var wire 32 ' b [31:0] $end
    $var wire 32 ( sum [31:0] $end
   $upscope $end
   $scope module m_Control $end
    $var wire  2 O ALUOp [1:0] $end
    $var wire  1 T ALUSrc $end
    $var wire  1 P branch $end
    $var wire  1 Q memRead $end
    $var wire  1 S memWrite $end
    $var wire  1 R memtoReg $end
    $var wire  7 + opcode [6:0] $end
    $var wire  1 U regWrite $end
   $upscope $end
   $scope module m_DataMemory $end
    $var wire 32 Y address [31:0] $end
    $var wire  1 \ clk $end
    $var wire  1 Q memRead $end
    $var wire  1 S memWrite $end
    $var wire 32 !! readData [31:0] $end
    $var wire  1 ] rst $end
    $var wire 32 X writeData [31:0] $end
   $upscope $end
   $scope module m_ImmGen $end
    $var wire 32 & imm [31:0] $end
    $var wire 32 % inst [31:0] $end
    $var wire  7 + opcode [6:0] $end
   $upscope $end
   $scope module m_InstMem $end
    $var wire 32 % inst [31:0] $end
    $var wire 32 # readAddr [31:0] $end
   $upscope $end
   $scope module m_Mux_ALU $end
    $var wire 32 Z out [31:0] $end
    $var wire 32 X s0 [31:0] $end
    $var wire 32 & s1 [31:0] $end
    $var wire  1 T sel $end
    $var wire 32 &! size [31:0] $end
   $upscope $end
   $scope module m_Mux_PC $end
    $var wire 32 ~ out [31:0] $end
    $var wire 32 $ s0 [31:0] $end
    $var wire 32 ( s1 [31:0] $end
    $var wire  1 $! sel $end
    $var wire 32 &! size [31:0] $end
   $upscope $end
   $scope module m_Mux_WriteData $end
    $var wire 32 "! out [31:0] $end
    $var wire 32 Y s0 [31:0] $end
    $var wire 32 !! s1 [31:0] $end
    $var wire  1 R sel $end
    $var wire 32 &! size [31:0] $end
   $upscope $end
   $scope module m_PC $end
    $var wire  1 \ clk $end
    $var wire 32 ~ pc_i [31:0] $end
    $var wire 32 # pc_o [31:0] $end
    $var wire  1 ] rst $end
   $upscope $end
   $scope module m_Register $end
    $var wire  1 \ clk $end
    $var wire 32 W readData1 [31:0] $end
    $var wire 32 X readData2 [31:0] $end
    $var wire  5 , readReg1 [4:0] $end
    $var wire  5 - readReg2 [4:0] $end
    $var wire  1 U regWrite $end
    $var wire 32 . regs[0] [31:0] $end
    $var wire 32 8 regs[10] [31:0] $end
    $var wire 32 9 regs[11] [31:0] $end
    $var wire 32 : regs[12] [31:0] $end
    $var wire 32 ; regs[13] [31:0] $end
    $var wire 32 < regs[14] [31:0] $end
    $var wire 32 = regs[15] [31:0] $end
    $var wire 32 > regs[16] [31:0] $end
    $var wire 32 ? regs[17] [31:0] $end
    $var wire 32 @ regs[18] [31:0] $end
    $var wire 32 A regs[19] [31:0] $end
    $var wire 32 / regs[1] [31:0] $end
    $var wire 32 B regs[20] [31:0] $end
    $var wire 32 C regs[21] [31:0] $end
    $var wire 32 D regs[22] [31:0] $end
    $var wire 32 E regs[23] [31:0] $end
    $var wire 32 F regs[24] [31:0] $end
    $var wire 32 G regs[25] [31:0] $end
    $var wire 32 H regs[26] [31:0] $end
    $var wire 32 I regs[27] [31:0] $end
    $var wire 32 J regs[28] [31:0] $end
    $var wire 32 K regs[29] [31:0] $end
    $var wire 32 0 regs[2] [31:0] $end
    $var wire 32 L regs[30] [31:0] $end
    $var wire 32 M regs[31] [31:0] $end
    $var wire 32 1 regs[3] [31:0] $end
    $var wire 32 2 regs[4] [31:0] $end
    $var wire 32 3 regs[5] [31:0] $end
    $var wire 32 4 regs[6] [31:0] $end
    $var wire 32 5 regs[7] [31:0] $end
    $var wire 32 6 regs[8] [31:0] $end
    $var wire 32 7 regs[9] [31:0] $end
    $var wire  1 ] rst $end
    $var wire 32 "! writeData [31:0] $end
    $var wire  5 V writeReg [4:0] $end
   $upscope $end
   $scope module m_ShiftLeftOne $end
    $var wire 32 & i [31:0] $end
    $var wire 32 ' o [31:0] $end
   $upscope $end
  $upscope $end
 $upscope $end
$enddefinitions $end


#0
b00000000000000000000000000000000 #
b00000000000000000000000000000100 $
b00000101000100000000001110010011 %
b00000000000000000000000001010001 &
b00000000000000000000000010100010 '
b00000000000000000000000010100010 (
0)
b000 *
b0010011 +
b00000 ,
b10001 -
b00000000000000000000000000000000 .
b00000000000000000000000000000000 /
b00000000000000000000000000000000 0
b00000000000000000000000000000000 1
b00000000000000000000000000000000 2
b00000000000000000000000000000000 3
b00000000000000000000000000000000 4
b00000000000000000000000000000000 5
b00000000000000000000000000000000 6
b00000000000000000000000000000000 7
b00000000000000000000000000000000 8
b00000000000000000000000000000000 9
b00000000000000000000000000000000 :
b00000000000000000000000000000000 ;
b00000000000000000000000000000000 <
b00000000000000000000000000000000 =
b00000000000000000000000000000000 >
b00000000000000000000000000000000 ?
b00000000000000000000000000000000 @
b00000000000000000000000000000000 A
b00000000000000000000000000000000 B
b00000000000000000000000000000000 C
b00000000000000000000000000000000 D
b00000000000000000000000000000000 E
b00000000000000000000000000000000 F
b00000000000000000000000000000000 G
b00000000000000000000000000000000 H
b00000000000000000000000000000000 I
b00000000000000000000000000000000 J
b00000000000000000000000000000000 K
b00000000000000000000000000000000 L
b00000000000000000000000000000000 M
b0001 N
b11 O
0P
0Q
0R
0S
1T
1U
b00111 V
b00000000000000000000000000000000 W
b00000000000000000000000000000000 X
b00000000000000000000000001010001 Y
b00000000000000000000000001010001 Z
0[
0\
1]
b00000000000000000000000000000000 ^
b00000000000000000000000000000000 _
b00000000000000000000000000000000 `
b00000000000000000000000000000000 a
b00000000000000000000000000000000 b
b00000000000000000000000000000000 c
b00000000000000000000000000000000 d
b00000000000000000000000000000000 e
b00000000000000000000000000000000 f
b00000000000000000000000000000000 g
b00000000000000000000000000000000 h
b00000000000000000000000000000000 i
b00000000000000000000000000000000 j
b00000000000000000000000000000000 k
b00000000000000000000000000000000 l
b00000000000000000000000000000000 m
b00000000000000000000000000000000 n
b00000000000000000000000000000000 o
b00000000000000000000000000000000 p
b00000000000000000000000000000000 q
b00000000000000000000000000000000 r
b00000000000000000000000000000000 s
b00000000000000000000000000000000 t
b00000000000000000000000000000000 u
b00000000000000000000000000000000 v
b00000000000000000000000000000000 w
b00000000000000000000000000000000 x
b00000000000000000000000000000000 y
b00000000000000000000000000000000 z
b00000000000000000000000000000000 {
b00000000000000000000000000000000 |
b00000000000000000000000000000000 }
b00000000000000000000000000000100 ~
b00000000000000000000000000000000 !!
b00000000000000000000000001010001 "!
b110000 #!
0$!
b00000000000000000000000000000100 %!
b00000000000000000000000000100000 &!
#1
b00000000000000000000000010000000 0
1\
0]
b00000000000000000000000010000000 `
#2
b00000000000000000000000001010001 5
0\
1]
b00000000000000000000000001010001 e
#3
b00000000000000000000000000000100 #
b00000000000000000000000000001000 $
b00000000000100000000011110010011 %
b00000000000000000000000000000001 &
b00000000000000000000000000000010 '
b00000000000000000000000000000110 (
b00001 -
b01111 V
b00000000000000000000000000000001 Y
b00000000000000000000000000000001 Z
1\
b00000000000000000000000000001000 ~
b00000000000000000000000000000001 "!
#4
b00000000000000000000000000000001 =
0\
b00000000000000000000000000000001 m
#5
b00000000000000000000000000001000 #
b00000000000000000000000000001100 $
b00000000011100010010001100110011 %
b00000000000000000000000000000000 &
b00000000000000000000000000000000 '
b00000000000000000000000000001000 (
b010 *
b0110011 +
b00010 ,
b00111 -
b0110 N
b10 O
0T
b00110 V
b00000000000000000000000010000000 W
b00000000000000000000000001010001 X
b00000000000000000000000000000000 Y
b00000000000000000000000001010001 Z
1[
1\
b00000000000000000000000000001100 ~
b00000000000000000000000000000000 "!
b100010 #!
#6
0\
#7
b00000000000000000000000000001100 #
b00000000000000000000000000010000 $
b00000000111100110000100001100011 %
b00000000000000000000000000001000 &
b00000000000000000000000000010000 '
b00000000000000000000000000011100 (
b000 *
b1100011 +
b00110 ,
b01111 -
b0100 N
b01 O
1P
0U
b10000 V
b00000000000000000000000000000000 W
b00000000000000000000000000000001 X
b11111111111111111111111111111111 Y
b00000000000000000000000000000001 Z
0[
1\
b00000000000000000000000000010000 ~
b11111111111111111111111111111111 "!
b010000 #!
#8
0\
#9
b00000000000000000000000000010000 #
b00000000000000000000000000010100 $
b00000000011100000000000100110011 %
b00000000000000000000000000000000 &
b00000000000000000000000000000000 '
b00000000000000000000000000010000 (
b0110011 +
b00000 ,
b00111 -
b0001 N
b10 O
0P
1U
b00010 V
b00000000000000000000000001010001 X
b00000000000000000000000001010001 Y
b00000000000000000000000001010001 Z
1\
b00000000000000000000000000010100 ~
b00000000000000000000000001010001 "!
b100000 #!
#10
b00000000000000000000000001010001 0
0\
b00000000000000000000000001010001 `
#11
b00000000000000000000000000010100 #
b00000000000000000000000000011000 $
b01000000011100010000000100110011 %
b00000000000000000000000000010100 (
1)
b00010 ,
b0100 N
b00000000000000000000000001010001 W
b00000000000000000000000000000000 Y
1[
1\
b00000000000000000000000000011000 ~
b00000000000000000000000000000000 "!
b101000 #!
#12
b00000000000000000000000000000000 0
b00000000000000000000000000000000 W
b11111111111111111111111110101111 Y
0[
0\
b00000000000000000000000000000000 `
b11111111111111111111111110101111 "!
#13
b00000000000000000000000000011000 #
b00000000000000000000000000011100 $
b11111110000000000000100011100011 %
b01111111111111111111111111111000 &
b11111111111111111111111111110000 '
b00000000000000000000000000001000 (
b1100011 +
b00000 ,
b00000 -
b01 O
1P
0U
b10001 V
b00000000000000000000000000000000 X
b00000000000000000000000000000000 Y
b00000000000000000000000000000000 Z
1[
1\
b00000000000000000000000000001000 ~
b00000000000000000000000000000000 "!
b011000 #!
1$!
#14
0\
#15
b00000000000000000000000000001000 #
b00000000000000000000000000001100 $
b00000000011100010010001100110011 %
b00000000000000000000000000000000 &
b00000000000000000000000000000000 '
0)
b010 *
b0110011 +
b00010 ,
b00111 -
b0110 N
b10 O
0P
1U
b00110 V
b00000000000000000000000001010001 X
b00000000000000000000000000000001 Y
b00000000000000000000000001010001 Z
0[
1\
b00000000000000000000000000001100 ~
b00000000000000000000000000000001 "!
b100010 #!
0$!
#16
b00000000000000000000000000000001 4
0\
b00000000000000000000000000000001 d
#17
b00000000000000000000000000001100 #
b00000000000000000000000000010000 $
b00000000111100110000100001100011 %
b00000000000000000000000000001000 &
b00000000000000000000000000010000 '
b00000000000000000000000000011100 (
b000 *
b1100011 +
b00110 ,
b01111 -
b0100 N
b01 O
1P
0U
b10000 V
b00000000000000000000000000000001 W
b00000000000000000000000000000001 X
b00000000000000000000000000000000 Y
b00000000000000000000000000000001 Z
1[
1\
b00000000000000000000000000011100 ~
b00000000000000000000000000000000 "!
b010000 #!
1$!
#18
0\
#19
b00000000000000000000000000011100 #
b00000000000000000000000000100000 $
b00000000000100110010000100000011 %
b00000000000000000000000000000001 &
b00000000000000000000000000000010 '
b00000000000000000000000000011110 (
b010 *
b0000011 +
b00001 -
b0001 N
b00 O
0P
1Q
1R
1T
1U
b00010 V
b00000000000000000000000000000000 X
b00000000000000000000000000000010 Y
0[
1\
b00000000000000000000000000100000 ~
b000010 #!
0$!
#20
0\
#21
b00000000000000000000000000100000 #
b00000000000000000000000000100100 $
b00000000000000000000000000000000 %
b00000000000000000000000000000000 &
b00000000000000000000000000000000 '
b00000000000000000000000000100000 (
b000 *
b0000000 +
b00000 ,
b00000 -
b00000 V
b00000000000000000000000000000000 W
b00000000000000000000000000000000 Y
b00000000000000000000000000000000 Z
1[
1\
b00000000000000000000000000100100 ~
b000000 #!
#22
0\
#23
b00000000000000000000000000100100 #
b00000000000000000000000000101000 $
b00000000000000000000000000100100 (
1\
b00000000000000000000000000101000 ~
#24
0\
#25
b00000000000000000000000000101000 #
b00000000000000000000000000101100 $
b00000000000000000000000000101000 (
1\
b00000000000000000000000000101100 ~
#26
0\
#27
b00000000000000000000000000101100 #
b00000000000000000000000000110000 $
b00000000000000000000000000101100 (
1\
b00000000000000000000000000110000 ~
#28
0\
#29
b00000000000000000000000000110000 #
b00000000000000000000000000110100 $
b00000000000000000000000000110000 (
1\
b00000000000000000000000000110100 ~
#30
0\
#31
b00000000000000000000000000110100 #
b00000000000000000000000000111000 $
b00000000000000000000000000110100 (
1\
b00000000000000000000000000111000 ~
#32
0\
#33
b00000000000000000000000000111000 #
b00000000000000000000000000111100 $
b00000000000000000000000000111000 (
1\
b00000000000000000000000000111100 ~
#34
0\
#35
b00000000000000000000000000111100 #
b00000000000000000000000001000000 $
b00000000000000000000000000111100 (
1\
b00000000000000000000000001000000 ~
#36
0\
#37
b00000000000000000000000001000000 #
b00000000000000000000000001000100 $
b00000000000000000000000001000000 (
1\
b00000000000000000000000001000100 ~
#38
0\
#39
b00000000000000000000000001000100 #
b00000000000000000000000001001000 $
b00000000000000000000000001000100 (
1\
b00000000000000000000000001001000 ~
#40
0\
#41
b00000000000000000000000001001000 #
b00000000000000000000000001001100 $
b00000000000000000000000001001000 (
1\
b00000000000000000000000001001100 ~
#42
0\
#43
b00000000000000000000000001001100 #
b00000000000000000000000001010000 $
b00000000000000000000000001001100 (
1\
b00000000000000000000000001010000 ~
#44
0\
#45
b00000000000000000000000001010000 #
b00000000000000000000000001010100 $
b00000000000000000000000001010000 (
1\
b00000000000000000000000001010100 ~
#46
0\
#47
b00000000000000000000000001010100 #
b00000000000000000000000001011000 $
b00000000000000000000000001010100 (
1\
b00000000000000000000000001011000 ~
#48
0\
#49
b00000000000000000000000001011000 #
b00000000000000000000000001011100 $
b00000000000000000000000001011000 (
1\
b00000000000000000000000001011100 ~
#50
0\
#51
b00000000000000000000000001011100 #
b00000000000000000000000001100000 $
b00000000000000000000000001011100 (
1\
b00000000000000000000000001100000 ~
#52
0\
#53
b00000000000000000000000001100000 #
b00000000000000000000000001100100 $
b00000000000000000000000001100000 (
1\
b00000000000000000000000001100100 ~
#54
0\
#55
b00000000000000000000000001100100 #
b00000000000000000000000001101000 $
b00000000000000000000000001100100 (
1\
b00000000000000000000000001101000 ~
#56
0\
#57
b00000000000000000000000001101000 #
b00000000000000000000000001101100 $
b00000000000000000000000001101000 (
1\
b00000000000000000000000001101100 ~
#58
0\
#59
b00000000000000000000000001101100 #
b00000000000000000000000001110000 $
b00000000000000000000000001101100 (
1\
b00000000000000000000000001110000 ~
#60
0\
#61
b00000000000000000000000001110000 #
b00000000000000000000000001110100 $
b00000000000000000000000001110000 (
1\
b00000000000000000000000001110100 ~
#62
0\
#63
b00000000000000000000000001110100 #
b00000000000000000000000001111000 $
b00000000000000000000000001110100 (
1\
b00000000000000000000000001111000 ~
#64
0\
#65
b00000000000000000000000001111000 #
b00000000000000000000000001111100 $
b00000000000000000000000001111000 (
1\
b00000000000000000000000001111100 ~
#66
0\
#67
b00000000000000000000000001111100 #
b00000000000000000000000010000000 $
b00000000000000000000000001111100 (
1\
b00000000000000000000000010000000 ~
#68
0\
#69
b00000000000000000000000010000000 #
b00000000000000000000000010000100 $
b00000000000000000000000010000000 (
1\
b00000000000000000000000010000100 ~
#70
0\
#71
b00000000000000000000000010000100 #
b00000000000000000000000010001000 $
b00000000000000000000000010000100 (
1\
b00000000000000000000000010001000 ~
#72
0\
#73
b00000000000000000000000010001000 #
b00000000000000000000000010001100 $
b00000000000000000000000010001000 (
1\
b00000000000000000000000010001100 ~
#74
0\
#75
b00000000000000000000000010001100 #
b00000000000000000000000010010000 $
b00000000000000000000000010001100 (
1\
b00000000000000000000000010010000 ~
#76
0\
#77
b00000000000000000000000010010000 #
b00000000000000000000000010010100 $
b00000000000000000000000010010000 (
1\
b00000000000000000000000010010100 ~
#78
0\
#79
b00000000000000000000000010010100 #
b00000000000000000000000010011000 $
b00000000000000000000000010010100 (
1\
b00000000000000000000000010011000 ~
#80
0\
#81
b00000000000000000000000010011000 #
b00000000000000000000000010011100 $
b00000000000000000000000010011000 (
1\
b00000000000000000000000010011100 ~
#82
0\
#83
b00000000000000000000000010011100 #
b00000000000000000000000010100000 $
b00000000000000000000000010011100 (
1\
b00000000000000000000000010100000 ~
#84
0\
#85
b00000000000000000000000010100000 #
b00000000000000000000000010100100 $
b00000000000000000000000010100000 (
1\
b00000000000000000000000010100100 ~
#86
0\
#87
b00000000000000000000000010100100 #
b00000000000000000000000010101000 $
b00000000000000000000000010100100 (
1\
b00000000000000000000000010101000 ~
#88
0\
#89
b00000000000000000000000010101000 #
b00000000000000000000000010101100 $
b00000000000000000000000010101000 (
1\
b00000000000000000000000010101100 ~
#90
0\
#91
b00000000000000000000000010101100 #
b00000000000000000000000010110000 $
b00000000000000000000000010101100 (
1\
b00000000000000000000000010110000 ~
#92
0\
#93
b00000000000000000000000010110000 #
b00000000000000000000000010110100 $
b00000000000000000000000010110000 (
1\
b00000000000000000000000010110100 ~
#94
0\
#95
b00000000000000000000000010110100 #
b00000000000000000000000010111000 $
b00000000000000000000000010110100 (
1\
b00000000000000000000000010111000 ~
#96
0\
#97
b00000000000000000000000010111000 #
b00000000000000000000000010111100 $
b00000000000000000000000010111000 (
1\
b00000000000000000000000010111100 ~
#98
0\
#99
b00000000000000000000000010111100 #
b00000000000000000000000011000000 $
b00000000000000000000000010111100 (
1\
b00000000000000000000000011000000 ~
#100
0\
#101
b00000000000000000000000011000000 #
b00000000000000000000000011000100 $
b00000000000000000000000011000000 (
1\
b00000000000000000000000011000100 ~
#102
0\
#103
b00000000000000000000000011000100 #
b00000000000000000000000011001000 $
b00000000000000000000000011000100 (
1\
b00000000000000000000000011001000 ~
