lab4/waveform.vcd
$version Generated by VerilatedVcd $end
$timescale 1s $end

 $scope module TOP $end
  $var wire  1 )! clk $end
  $var wire 32 +! r[0] [31:0] $end
  $var wire 32 5! r[10] [31:0] $end
  $var wire 32 6! r[11] [31:0] $end
  $var wire 32 7! r[12] [31:0] $end
  $var wire 32 8! r[13] [31:0] $end
  $var wire 32 9! r[14] [31:0] $end
  $var wire 32 :! r[15] [31:0] $end
  $var wire 32 ;! r[16] [31:0] $end
  $var wire 32 <! r[17] [31:0] $end
  $var wire 32 =! r[18] [31:0] $end
  $var wire 32 >! r[19] [31:0] $end
  $var wire 32 ,! r[1] [31:0] $end
  $var wire 32 ?! r[20] [31:0] $end
  $var wire 32 @! r[21] [31:0] $end
  $var wire 32 A! r[22] [31:0] $end
  $var wire 32 B! r[23] [31:0] $end
  $var wire 32 C! r[24] [31:0] $end
  $var wire 32 D! r[25] [31:0] $end
  $var wire 32 E! r[26] [31:0] $end
  $var wire 32 F! r[27] [31:0] $end
  $var wire 32 G! r[28] [31:0] $end
  $var wire 32 H! r[29] [31:0] $end
  $var wire 32 -! r[2] [31:0] $end
  $var wire 32 I! r[30] [31:0] $end
  $var wire 32 J! r[31] [31:0] $end
  $var wire 32 .! r[3] [31:0] $end
  $var wire 32 /! r[4] [31:0] $end
  $var wire 32 0! r[5] [31:0] $end
  $var wire 32 1! r[6] [31:0] $end
  $var wire 32 2! r[7] [31:0] $end
  $var wire 32 3! r[8] [31:0] $end
  $var wire 32 4! r[9] [31:0] $end
  $var wire  1 *! start $end
  $scope module PipelineCPU $end
   $var wire  4 1 ALUCtl [3:0] $end
   $var wire 32 v EXMEM_aluResult [31:0] $end
   $var wire  1 w EXMEM_memRead $end
   $var wire  1 4 EXMEM_memWrite $end
   $var wire  2 ; EXMEM_memtoReg [1:0] $end
   $var wire 32 3 EXMEM_next_pc [31:0] $end
   $var wire  5 { EXMEM_rd [4:0] $end
   $var wire  1 x EXMEM_regWrite $end
   $var wire 32 2 EXMEM_rs2 [31:0] $end
   $var wire  3 . IDEX_ALUOp [2:0] $end
   $var wire  1 - IDEX_ALUSrc $end
   $var wire  3 / IDEX_funct3 [2:0] $end
   $var wire  1 0 IDEX_funct7 $end
   $var wire 32 + IDEX_imm [31:0] $end
   $var wire  1 u IDEX_memRead $end
   $var wire  1 , IDEX_memWrite $end
   $var wire  2 : IDEX_memtoReg [1:0] $end
   $var wire 32 ( IDEX_next_pc [31:0] $end
   $var wire  5 z IDEX_rd [4:0] $end
   $var wire  1 t IDEX_regWrite $end
   $var wire 32 ) IDEX_rs1 [31:0] $end
   $var wire  5 8 IDEX_rs1_num [4:0] $end
   $var wire 32 * IDEX_rs2 [31:0] $end
   $var wire  5 9 IDEX_rs2_num [4:0] $end
   $var wire 32 s IFID_inst [31:0] $end
   $var wire 32 ' IFID_next_pc [31:0] $end
   $var wire 32 & IFID_pc [31:0] $end
   $var wire 32 6 MEMWB_aluResult [31:0] $end
   $var wire 32 5 MEMWB_memData [31:0] $end
   $var wire  2 < MEMWB_memtoReg [1:0] $end
   $var wire 32 7 MEMWB_next_pc [31:0] $end
   $var wire  5 | MEMWB_rd [4:0] $end
   $var wire  1 y MEMWB_regWrite $end
   $var wire  1 )! clk $end
   $var wire  1 &! flush $end
   $var wire  1 ^ hazard_o $end
   $var wire 32 # inst [31:0] $end
   $var wire 32 +! r[0] [31:0] $end
   $var wire 32 5! r[10] [31:0] $end
   $var wire 32 6! r[11] [31:0] $end
   $var wire 32 7! r[12] [31:0] $end
   $var wire 32 8! r[13] [31:0] $end
   $var wire 32 9! r[14] [31:0] $end
   $var wire 32 :! r[15] [31:0] $end
   $var wire 32 ;! r[16] [31:0] $end
   $var wire 32 <! r[17] [31:0] $end
   $var wire 32 =! r[18] [31:0] $end
   $var wire 32 >! r[19] [31:0] $end
   $var wire 32 ,! r[1] [31:0] $end
   $var wire 32 ?! r[20] [31:0] $end
   $var wire 32 @! r[21] [31:0] $end
   $var wire 32 A! r[22] [31:0] $end
   $var wire 32 B! r[23] [31:0] $end
   $var wire 32 C! r[24] [31:0] $end
   $var wire 32 D! r[25] [31:0] $end
   $var wire 32 E! r[26] [31:0] $end
   $var wire 32 F! r[27] [31:0] $end
   $var wire 32 G! r[28] [31:0] $end
   $var wire 32 H! r[29] [31:0] $end
   $var wire 32 -! r[2] [31:0] $end
   $var wire 32 I! r[30] [31:0] $end
   $var wire 32 J! r[31] [31:0] $end
   $var wire 32 .! r[3] [31:0] $end
   $var wire 32 /! r[4] [31:0] $end
   $var wire 32 0! r[5] [31:0] $end
   $var wire 32 1! r[6] [31:0] $end
   $var wire 32 2! r[7] [31:0] $end
   $var wire 32 3! r[8] [31:0] $end
   $var wire 32 4! r[9] [31:0] $end
   $var wire  1 *! start $end
   $var wire 32 $ w1 [31:0] $end
   $var wire 32 o w11 [31:0] $end
   $var wire 32 p w12 [31:0] $end
   $var wire 32 q w13 [31:0] $end
   $var wire 32 N! w14 [31:0] $end
   $var wire 32 r w15 [31:0] $end
   $var wire  2 g w16 [1:0] $end
   $var wire  2 h w17 [1:0] $end
   $var wire  1 _ w18 $end
   $var wire  2 i w19 [1:0] $end
   $var wire 32 K! w2 [31:0] $end
   $var wire  1 ` w20 $end
   $var wire  1 a w21 $end
   $var wire  3 k w22 [2:0] $end
   $var wire  1 b w23 $end
   $var wire  1 c w24 $end
   $var wire  2 j w25 [1:0] $end
   $var wire  1 d w26 $end
   $var wire  1 e w27 $end
   $var wire  3 l w28 [2:0] $end
   $var wire  1 f w29 $end
   $var wire 32 L! w3 [31:0] $end
   $var wire 32 % w4 [31:0] $end
   $var wire 32 '! w5 [31:0] $end
   $var wire 32 (! w6 [31:0] $end
   $var wire 32 m w7 [31:0] $end
   $var wire 32 M! w8 [31:0] $end
   $var wire 32 n w9 [31:0] $end
   $scope module m_ALU $end
    $var wire 32 o A [31:0] $end
    $var wire  4 1 ALUCtl [3:0] $end
    $var wire 32 q ALUOut [31:0] $end
    $var wire 32 p B [31:0] $end
   $upscope $end
   $scope module m_ALUCtrl $end
    $var wire  4 1 ALUCtl [3:0] $end
    $var wire  3 . ALUOp [2:0] $end
    $var wire  7 = combined [6:0] $end
    $var wire  3 / funct3 [2:0] $end
    $var wire  1 0 funct7 $end
   $upscope $end
   $scope module m_Adder_1 $end
    $var wire 32 % a [31:0] $end
    $var wire 32 P! b [31:0] $end
    $var wire 32 $ sum [31:0] $end
   $upscope $end
   $scope module m_Adder_2 $end
    $var wire 32 M! a [31:0] $end
    $var wire 32 m b [31:0] $end
    $var wire 32 K! sum [31:0] $end
   $upscope $end
   $scope module m_BranchComp $end
    $var wire  1 &! flush_o $end
    $var wire  3 ~ funct3_i [2:0] $end
    $var wire  7 } opcode_i [6:0] $end
    $var wire 32 '! rs1_i [31:0] $end
    $var wire 32 (! rs2_i [31:0] $end
   $upscope $end
   $scope module m_Control $end
    $var wire  3 k ALUOp [2:0] $end
    $var wire  1 b ALUSrc $end
    $var wire  1 ` memRead $end
    $var wire  1 a memWrite $end
    $var wire  2 i memtoReg [1:0] $end
    $var wire  7 } opcode [6:0] $end
    $var wire  1 _ regWrite $end
   $upscope $end
   $scope module m_DataMemory $end
    $var wire 32 v address [31:0] $end
    $var wire  1 )! clk $end
    $var wire  1 w memRead $end
    $var wire  1 4 memWrite $end
    $var wire 32 N! readData [31:0] $end
    $var wire  1 *! rst $end
    $var wire 32 2 writeData [31:0] $end
   $upscope $end
   $scope module m_EX_MEM_reg $end
    $var wire 32 q ALU_result_i [31:0] $end
    $var wire 32 v ALU_result_o [31:0] $end
    $var wire  1 )! clk $end
    $var wire  1 u memRead_i $end
    $var wire  1 w memRead_o $end
    $var wire  1 , memWrite_i $end
    $var wire  1 4 memWrite_o $end
    $var wire  2 : memtoReg_i [1:0] $end
    $var wire  2 ; memtoReg_o [1:0] $end
    $var wire 32 ( next_pc_i [31:0] $end
    $var wire 32 3 next_pc_o [31:0] $end
    $var wire  5 z rd_i [4:0] $end
    $var wire  5 { rd_o [4:0] $end
    $var wire  1 t regWrite_i $end
    $var wire  1 x regWrite_o $end
    $var wire 32 n rs2_i [31:0] $end
    $var wire 32 2 rs2_o [31:0] $end
    $var wire  1 *! rst $end
   $upscope $end
   $scope module m_ForwardingUnit $end
    $var wire  5 { EX_MEM_rd_i [4:0] $end
    $var wire  1 x EX_MEM_regWrite_i $end
    $var wire  5 8 ID_EX_rs1_num_i [4:0] $end
    $var wire  5 9 ID_EX_rs2_num_i [4:0] $end
    $var wire  5 | MEM_WB_rd_i [4:0] $end
    $var wire  1 y MEM_WB_regWrite_i $end
    $var wire  2 g fwdA_o [1:0] $end
    $var wire  2 h fwdB_o [1:0] $end
   $upscope $end
   $scope module m_HazardDetectionUnit $end
    $var wire  5 { EX_MEM_rd_i [4:0] $end
    $var wire  1 x EX_MEM_regWrite_i $end
    $var wire  5 z ID_EX_rd_i [4:0] $end
    $var wire  1 t ID_EX_regWrite_i $end
    $var wire  5 !! IF_ID_rs1_i [4:0] $end
    $var wire  5 "! IF_ID_rs2_i [4:0] $end
    $var wire  1 ^ hazard_o $end
    $var wire  1 u memRead_i $end
   $upscope $end
   $scope module m_ID_EX_reg $end
    $var wire  3 l ALUOp_i [2:0] $end
    $var wire  3 . ALUOp_o [2:0] $end
    $var wire  1 f ALUSrc_i $end
    $var wire  1 - ALUSrc_o $end
    $var wire  1 )! clk $end
    $var wire  3 ~ funct3_i [2:0] $end
    $var wire  3 / funct3_o [2:0] $end
    $var wire  1 $! funct7_i $end
    $var wire  1 0 funct7_o $end
    $var wire 32 m imm_i [31:0] $end
    $var wire 32 + imm_o [31:0] $end
    $var wire  1 d memRead_i $end
    $var wire  1 u memRead_o $end
    $var wire  1 e memWrite_i $end
    $var wire  1 , memWrite_o $end
    $var wire  2 j memtoReg_i [1:0] $end
    $var wire  2 : memtoReg_o [1:0] $end
    $var wire 32 ' next_pc_i [31:0] $end
    $var wire 32 ( next_pc_o [31:0] $end
    $var wire  5 #! rd_i [4:0] $end
    $var wire  5 z rd_o [4:0] $end
    $var wire  1 c regWrite_i $end
    $var wire  1 t regWrite_o $end
    $var wire 32 '! rs1_i [31:0] $end
    $var wire  5 !! rs1_num_i [4:0] $end
    $var wire  5 8 rs1_num_o [4:0] $end
    $var wire 32 ) rs1_o [31:0] $end
    $var wire 32 (! rs2_i [31:0] $end
    $var wire  5 "! rs2_num_i [4:0] $end
    $var wire  5 9 rs2_num_o [4:0] $end
    $var wire 32 * rs2_o [31:0] $end
    $var wire  1 *! rst $end
   $upscope $end
   $scope module m_IF_ID_reg $end
    $var wire  1 )! clk $end
    $var wire  1 &! flush $end
    $var wire  1 ^ hazard $end
    $var wire 32 # inst_i [31:0] $end
    $var wire 32 s inst_o [31:0] $end
    $var wire 32 $ next_pc_i [31:0] $end
    $var wire 32 ' next_pc_o [31:0] $end
    $var wire 32 % pc_i [31:0] $end
    $var wire 32 & pc_o [31:0] $end
    $var wire  1 *! rst $end
   $upscope $end
   $scope module m_ImmGen $end
    $var wire 32 m imm [31:0] $end
    $var wire 32 s inst [31:0] $end
    $var wire  7 } opcode [6:0] $end
   $upscope $end
   $scope module m_InstMem $end
    $var wire 32 # inst [31:0] $end
    $var wire 32 % readAddr [31:0] $end
   $upscope $end
   $scope module m_MEM_WB_reg $end
    $var wire 32 v ALU_result_i [31:0] $end
    $var wire 32 6 ALU_result_o [31:0] $end
    $var wire 32 N! MEM_result_i [31:0] $end
    $var wire 32 5 MEM_result_o [31:0] $end
    $var wire  1 )! clk $end
    $var wire  2 ; memtoReg_i [1:0] $end
    $var wire  2 < memtoReg_o [1:0] $end
    $var wire 32 3 next_pc_i [31:0] $end
    $var wire 32 7 next_pc_o [31:0] $end
    $var wire  5 { rd_i [4:0] $end
    $var wire  5 | rd_o [4:0] $end
    $var wire  1 x regWrite_i $end
    $var wire  1 y regWrite_o $end
    $var wire  1 *! rst $end
   $upscope $end
   $scope module m_MuxBranch $end
    $var wire 32 M! out [31:0] $end
    $var wire 32 & s0 [31:0] $end
    $var wire 32 '! s1 [31:0] $end
    $var wire  1 %! sel $end
    $var wire 32 Q! size [31:0] $end
   $upscope $end
   $scope module m_MuxControl $end
    $var wire  3 k ALUOp_i [2:0] $end
    $var wire  3 l ALUOp_o [2:0] $end
    $var wire  1 b ALUSrc_i $end
    $var wire  1 f ALUSrc_o $end
    $var wire  1 ^ hazard_i $end
    $var wire  1 ` memRead_i $end
    $var wire  1 d memRead_o $end
    $var wire  1 a memWrite_i $end
    $var wire  1 e memWrite_o $end
    $var wire  2 i memtoReg_i [1:0] $end
    $var wire  2 j memtoReg_o [1:0] $end
    $var wire  1 _ regWrite_i $end
    $var wire  1 c regWrite_o $end
   $upscope $end
   $scope module m_Mux_ALUSrc1 $end
    $var wire 32 o out [31:0] $end
    $var wire 32 ) s0 [31:0] $end
    $var wire 32 r s1 [31:0] $end
    $var wire 32 v s2 [31:0] $end
    $var wire  2 g sel [1:0] $end
    $var wire 32 Q! size [31:0] $end
   $upscope $end
   $scope module m_Mux_ALUSrc2 $end
    $var wire 32 p out [31:0] $end
    $var wire 32 n s0 [31:0] $end
    $var wire 32 + s1 [31:0] $end
    $var wire  1 - sel $end
    $var wire 32 Q! size [31:0] $end
   $upscope $end
   $scope module m_Mux_ALUSubSrc $end
    $var wire 32 n out [31:0] $end
    $var wire 32 * s0 [31:0] $end
    $var wire 32 r s1 [31:0] $end
    $var wire 32 v s2 [31:0] $end
    $var wire  2 h sel [1:0] $end
    $var wire 32 Q! size [31:0] $end
   $upscope $end
   $scope module m_Mux_PC $end
    $var wire 32 L! out [31:0] $end
    $var wire 32 $ s0 [31:0] $end
    $var wire 32 K! s1 [31:0] $end
    $var wire  1 O! sel $end
    $var wire 32 Q! size [31:0] $end
   $upscope $end
   $scope module m_Mux_WriteData $end
    $var wire 32 r out [31:0] $end
    $var wire 32 6 s0 [31:0] $end
    $var wire 32 5 s1 [31:0] $end
    $var wire 32 7 s2 [31:0] $end
    $var wire  2 < sel [1:0] $end
    $var wire 32 Q! size [31:0] $end
   $upscope $end
   $scope module m_PC $end
    $var wire  1 )! clk $end
    $var wire  1 ^ hazard_i $end
    $var wire 32 L! pc_i [31:0] $end
    $var wire 32 % pc_o [31:0] $end
    $var wire  1 *! rst $end
   $upscope $end
   $scope module m_Register $end
    $var wire  1 )! clk $end
    $var wire 32 '! readData1 [31:0] $end
    $var wire 32 (! readData2 [31:0] $end
    $var wire  5 !! readReg1 [4:0] $end
    $var wire  5 "! readReg2 [4:0] $end
    $var wire  1 y regWrite $end
    $var wire 32 > regs[0] [31:0] $end
    $var wire 32 H regs[10] [31:0] $end
    $var wire 32 I regs[11] [31:0] $end
    $var wire 32 J regs[12] [31:0] $end
    $var wire 32 K regs[13] [31:0] $end
    $var wire 32 L regs[14] [31:0] $end
    $var wire 32 M regs[15] [31:0] $end
    $var wire 32 N regs[16] [31:0] $end
    $var wire 32 O regs[17] [31:0] $end
    $var wire 32 P regs[18] [31:0] $end
    $var wire 32 Q regs[19] [31:0] $end
    $var wire 32 ? regs[1] [31:0] $end
    $var wire 32 R regs[20] [31:0] $end
    $var wire 32 S regs[21] [31:0] $end
    $var wire 32 T regs[22] [31:0] $end
    $var wire 32 U regs[23] [31:0] $end
    $var wire 32 V regs[24] [31:0] $end
    $var wire 32 W regs[25] [31:0] $end
    $var wire 32 X regs[26] [31:0] $end
    $var wire 32 Y regs[27] [31:0] $end
    $var wire 32 Z regs[28] [31:0] $end
    $var wire 32 [ regs[29] [31:0] $end
    $var wire 32 @ regs[2] [31:0] $end
    $var wire 32 \ regs[30] [31:0] $end
    $var wire 32 ] regs[31] [31:0] $end
    $var wire 32 A regs[3] [31:0] $end
    $var wire 32 B regs[4] [31:0] $end
    $var wire 32 C regs[5] [31:0] $end
    $var wire 32 D regs[6] [31:0] $end
    $var wire 32 E regs[7] [31:0] $end
    $var wire 32 F regs[8] [31:0] $end
    $var wire 32 G regs[9] [31:0] $end
    $var wire  1 *! rst $end
    $var wire 32 r writeData [31:0] $end
    $var wire  5 | writeReg [4:0] $end
   $upscope $end
  $upscope $end
 $upscope $end
$enddefinitions $end


#0
b00001010001100000000010000010011 #
b00000000000000000000000000000100 $
b00000000000000000000000000000000 %
b00000000000000000000000000000000 &
b00000000000000000000000000000000 '
b00000000000000000000000000000000 (
b00000000000000000000000000000000 )
b00000000000000000000000000000000 *
b00000000000000000000000000000000 +
0,
0-
b000 .
b000 /
00
b0000 1
b00000000000000000000000000000000 2
b00000000000000000000000000000000 3
04
b00000000000000000000000000000000 5
b00000000000000000000000000000000 6
b00000000000000000000000000000000 7
b00000 8
b00000 9
b00 :
b00 ;
b00 <
b0000000 =
b00000000000000000000000000000000 >
b00000000000000000000000000000000 ?
b00000000000000000000000000000000 @
b00000000000000000000000000000000 A
b00000000000000000000000000000000 B
b00000000000000000000000000000000 C
b00000000000000000000000000000000 D
b00000000000000000000000000000000 E
b00000000000000000000000000000000 F
b00000000000000000000000000000000 G
b00000000000000000000000000000000 H
b00000000000000000000000000000000 I
b00000000000000000000000000000000 J
b00000000000000000000000000000000 K
b00000000000000000000000000000000 L
b00000000000000000000000000000000 M
b00000000000000000000000000000000 N
b00000000000000000000000000000000 O
b00000000000000000000000000000000 P
b00000000000000000000000000000000 Q
b00000000000000000000000000000000 R
b00000000000000000000000000000000 S
b00000000000000000000000000000000 T
b00000000000000000000000000000000 U
b00000000000000000000000000000000 V
b00000000000000000000000000000000 W
b00000000000000000000000000000000 X
b00000000000000000000000000000000 Y
b00000000000000000000000000000000 Z
b00000000000000000000000000000000 [
b00000000000000000000000000000000 \
b00000000000000000000000000000000 ]
0^
0_
0`
0a
0b
0c
0d
0e
0f
b00 g
b00 h
b00 i
b00 j
b000 k
b000 l
b00000000000000000000000000000000 m
b00000000000000000000000000000000 n
b00000000000000000000000000000000 o
b00000000000000000000000000000000 p
b00000000000000000000000000000000 q
b00000000000000000000000000000000 r
b00000000000000000000000000000000 s
0t
0u
b00000000000000000000000000000000 v
0w
0x
0y
b00000 z
b00000 {
b00000 |
b0000000 }
b000 ~
b00000 !!
b00000 "!
b00000 #!
0$!
0%!
0&!
b00000000000000000000000000000000 '!
b00000000000000000000000000000000 (!
0)!
1*!
b00000000000000000000000000000000 +!
b00000000000000000000000000000000 ,!
b00000000000000000000000000000000 -!
b00000000000000000000000000000000 .!
b00000000000000000000000000000000 /!
b00000000000000000000000000000000 0!
b00000000000000000000000000000000 1!
b00000000000000000000000000000000 2!
b00000000000000000000000000000000 3!
b00000000000000000000000000000000 4!
b00000000000000000000000000000000 5!
b00000000000000000000000000000000 6!
b00000000000000000000000000000000 7!
b00000000000000000000000000000000 8!
b00000000000000000000000000000000 9!
b00000000000000000000000000000000 :!
b00000000000000000000000000000000 ;!
b00000000000000000000000000000000 <!
b00000000000000000000000000000000 =!
b00000000000000000000000000000000 >!
b00000000000000000000000000000000 ?!
b00000000000000000000000000000000 @!
b00000000000000000000000000000000 A!
b00000000000000000000000000000000 B!
b00000000000000000000000000000000 C!
b00000000000000000000000000000000 D!
b00000000000000000000000000000000 E!
b00000000000000000000000000000000 F!
b00000000000000000000000000000000 G!
b00000000000000000000000000000000 H!
b00000000000000000000000000000000 I!
b00000000000000000000000000000000 J!
b00000000000000000000000000000000 K!
b00000000000000000000000000000100 L!
b00000000000000000000000000000000 M!
b00000000000000000000000000000000 N!
0O!
b00000000000000000000000000000100 P!
b00000000000000000000000000100000 Q!
#1
b00000000000000000000000010000000 @
1)!
0*!
b00000000000000000000000010000000 -!
#2
0)!
1*!
#3
b11111111110000010000000100010011 #
b00000000000000000000000000001000 $
b00000000000000000000000000000100 %
b00000000000000000000000000000100 '
1_
1b
1c
1f
b110 k
b110 l
b00000000000000000000000010100011 m
b00001010001100000000010000010011 s
b0010011 }
b00011 "!
b01000 #!
1)!
b00000000000000000000000010100011 K!
b00000000000000000000000000001000 L!
#4
0)!
#5
b00000000100000010010000000100011 #
b00000000000000000000000000001100 $
b00000000000000000000000000001000 %
b00000000000000000000000000000100 &
b00000000000000000000000000001000 '
b00000000000000000000000000000100 (
b00000000000000000000000010100011 +
1-
b110 .
b0001 1
b00011 9
b1100000 =
b11111111111111111111111111111100 m
b00000000000000000000000010100011 p
b00000000000000000000000010100011 q
b11111111110000010000000100010011 s
1t
b01000 z
b00010 !!
b11100 "!
b00010 #!
1$!
b00000000000000000000000010000000 '!
1)!
b00000000000000000000000000000000 K!
b00000000000000000000000000001100 L!
b00000000000000000000000000000100 M!
#6
0)!
#7
b00000000000000000000010000110011 #
b00000000000000000000000000010000 $
b00000000000000000000000000001100 %
b00000000000000000000000000001000 &
b00000000000000000000000000001100 '
b00000000000000000000000000001000 (
b00000000000000000000000010000000 )
b11111111111111111111111111111100 +
10
b00000000000000000000000000000100 3
b00010 8
b11100 9
b1101000 =
1^
0_
1a
0c
0f
b000 k
b000 l
b00000000000000000000000000000000 m
b00000000000000000000000010000000 o
b11111111111111111111111111111100 p
b00000000000000000000000001111100 q
b00000000100000010010000000100011 s
b00000000000000000000000010100011 v
1x
b00010 z
b01000 {
b0100011 }
b010 ~
b01000 "!
b00000 #!
0$!
1)!
b00000000000000000000000000001000 K!
b00000000000000000000000000010000 L!
b00000000000000000000000000001000 M!
#8
0)!
#9
b00000000000000000000000000001100 (
b00000000000000000000000000000000 +
0-
b000 .
b010 /
00
b00000000000000000000000000001000 3
b00000000000000000000000010100011 6
b00000000000000000000000000000100 7
b01000 9
b0000010 =
b10 g
b01 h
b00000000000000000000000010100011 n
b00000000000000000000000001111100 o
b00000000000000000000000010100011 p
b00000000000000000000000100011111 q
b00000000000000000000000010100011 r
0t
b00000000000000000000000001111100 v
1y
b00000 z
b00010 {
b01000 |
1)!
#10
b00000000000000000000000010100011 F
b00000000000000000000000010100011 (!
0)!
b00000000000000000000000010100011 3!
#11
b00000000000000000000000010100011 *
b00000000000000000000000010100011 2
b00000000000000000000000000001100 3
b00000000000000000000000001111100 6
b00000000000000000000000000001000 7
0^
1e
1f
b01 g
b00 h
b00000000000000000000000001111100 r
b00000000000000000000000100011111 v
0x
b00000 {
b00010 |
1)!
#12
b00000000000000000000000001111100 @
b00000000000000000000000001111100 '!
0)!
b00000000000000000000000001111100 -!
#13
b00000000000000000000001010010011 #
b00000000000000000000000000010100 $
b00000000000000000000000000010000 %
b00000000000000000000000000001100 &
b00000000000000000000000000010000 '
b00000000000000000000000001111100 )
1,
1-
b00000000000000000000000100011111 6
b00000000000000000000000000001100 7
1_
0a
0b
1c
0e
0f
b00 g
b100 k
b100 l
b00000000000000000000000000000000 p
b00000000000000000000000001111100 q
b00000000000000000000000100011111 r
b00000000000000000000010000110011 s
0y
b00000 |
b0110011 }
b000 ~
b00000 !!
b00000 "!
b01000 #!
b00000000000000000000000000000000 '!
b00000000000000000000000000000000 (!
1)!
b00000000000000000000000000001100 K!
b00000000000000000000000000010100 L!
b00000000000000000000000000001100 M!
#14
0)!
#15
b00000000011100101010001100010011 #
b00000000000000000000000000011000 $
b00000000000000000000000000010100 %
b00000000000000000000000000010000 &
b00000000000000000000000000010100 '
b00000000000000000000000000010000 (
b00000000000000000000000000000000 )
b00000000000000000000000000000000 *
0,
0-
b100 .
b000 /
14
b00000 8
b00000 9
b1000000 =
1b
1f
b110 k
b110 l
b00000000000000000000000000000000 n
b00000000000000000000000000000000 o
b00000000000000000000000000000000 q
b00000000000000000000001010010011 s
1t
b00000000000000000000000001111100 v
b01000 z
b0010011 }
b00101 #!
1)!
b00000000000000000000000000010000 K!
b00000000000000000000000000011000 L!
b00000000000000000000000000010000 M!
#16
0)!
#17
b00000000000000110000011001100011 #
b00000000000000000000000000011100 $
b00000000000000000000000000011000 %
b00000000000000000000000000010100 &
b00000000000000000000000000011000 '
b00000000000000000000000000010100 (
1-
b110 .
b00000000000000000000000000000000 2
b00000000000000000000000000010000 3
04
b00000000000000000000000001111100 6
b1100000 =
1^
0c
0f
b000 l
b00000000000000000000000000000111 m
b00000000000000000000000001111100 r
b00000000011100101010001100010011 s
b00000000000000000000000000000000 v
1x
b00101 z
b01000 {
b010 ~
b00101 !!
b00111 "!
b00110 #!
1)!
b00000000000000000000000000011011 K!
b00000000000000000000000000011100 L!
b00000000000000000000000000010100 M!
#18
0)!
#19
b00000000000000000000000000011000 (
b00000000000000000000000000000111 +
0-
b000 .
b010 /
b00000000000000000000000000010100 3
b00000000000000000000000000000000 6
b00000000000000000000000000010000 7
b00101 8
b00111 9
b0000010 =
b10 g
b00000000000000000000000000000000 r
0t
1y
b00110 z
b00101 {
b01000 |
1)!
#20
b00000000000000000000000000000000 F
0)!
b00000000000000000000000000000000 3!
#21
b00000000000000000000000000011000 3
b00000000000000000000000000010100 7
0^
1c
1f
b01 g
b110 l
0x
b00110 {
b00101 |
1)!
#22
0)!
#23
b00000000000100101000001010010011 #
b00000000000000000000000000100000 $
b00000000000000000000000000011100 %
b00000000000000000000000000011000 &
b00000000000000000000000000011100 '
1-
b110 .
b0110 1
b00000000000000000000000000011000 7
b1100010 =
1^
0_
0c
0f
b00 g
b010 k
b000 l
b00000000000000000000000000001100 m
b00000000000000000000000000000111 p
b00000000000000000000000000000001 q
b00000000000000110000011001100011 s
1t
0y
b00110 |
b1100011 }
b000 ~
b00110 !!
b00000 "!
b01100 #!
1&!
1)!
b00000000000000000000000000100100 K!
b00000000000000000000000000100000 L!
b00000000000000000000000000011000 M!
#24
0)!
#25
b00000000000000000000000000011100 (
b00000000000000000000000000001100 +
0-
b000 .
b000 /
b0000 1
b00110 8
b00000 9
b0000000 =
b10 g
b00000000000000000000000000000001 o
b00000000000000000000000000000000 p
0t
b00000000000000000000000000000001 v
1x
b01100 z
1)!
#26
0)!
#27
b00000000000000000000000000011100 3
b00000000000000000000000000000001 6
0^
1f
b01 g
b010 l
b00000000000000000000000000000001 r
0x
1y
b01100 {
1)!
b00000000000000000000000000100100 L!
1O!
#28
b00000000000000000000000000000001 D
0&!
b00000000000000000000000000000001 '!
0)!
b00000000000000000000000000000001 1!
b00000000000000000000000000100000 L!
0O!
#29
b11111110000000000000101011100011 #
b00000000000000000000000000100100 $
b00000000000000000000000000100000 %
b00000000000000000000000000011100 &
b00000000000000000000000000100000 '
b00000000000000000000000000000001 )
1-
b010 .
b00000000000000000000000000011100 7
b0100000 =
1_
1c
b00 g
b110 k
b110 l
b00000000000000000000000000000001 m
b00000000000000000000000000001100 p
b00000000000100101000001010010011 s
0y
b01100 |
b0010011 }
b00101 !!
b00001 "!
b00101 #!
b00000000000000000000000000000000 '!
1)!
b00000000000000000000000000011101 K!
b00000000000000000000000000100100 L!
b00000000000000000000000000011100 M!
#30
0)!
#31
b00000000101000110110001100010011 #
b00000000000000000000000000101000 $
b00000000000000000000000000100100 %
b00000000000000000000000000100000 &
b00000000000000000000000000100100 '
b00000000000000000000000000100000 (
b00000000000000000000000000000000 )
b00000000000000000000000000000001 +
b110 .
b0001 1
b00101 8
b00001 9
b1100000 =
0_
0c
b010 k
b010 l
b11111111111111111111111111110100 m
b00000000000000000000000000000000 o
b00000000000000000000000000000001 p
b11111110000000000000101011100011 s
1t
b00101 z
b1100011 }
b00000 !!
b00000 "!
b10101 #!
1$!
1&!
1)!
b00000000000000000000000000010100 K!
b00000000000000000000000000010100 L!
b00000000000000000000000000100000 M!
1O!
#32
0)!
#33
b00000000011100101010001100010011 #
b00000000000000000000000000011000 $
b00000000000000000000000000010100 %
b00000000000000000000000000000000 &
b00000000000000000000000000000000 '
b00000000000000000000000000100100 (
b11111111111111111111111111110100 +
b010 .
10
b0000 1
b00000000000000000000000000100000 3
b00000 8
b00000 9
b0101000 =
b00000000000000000000000000000000 m
b11111111111111111111111111110100 p
b00000000000000000000000000000000 s
0t
1x
b10101 z
b00101 {
b0000000 }
b00000 #!
0$!
0&!
1)!
b00000000000000000000000000000000 K!
b00000000000000000000000000011000 L!
b00000000000000000000000000000000 M!
0O!
#34
0)!
#35
b00000000000000110000011001100011 #
b00000000000000000000000000011100 $
b00000000000000000000000000011000 %
b00000000000000000000000000010100 &
b00000000000000000000000000011000 '
b00000000000000000000000000000000 (
b00000000000000000000000000000000 +
00
b00000000000000000000000000100100 3
b00000000000000000000000000100000 7
b0100000 =
1_
1c
b110 k
b110 l
b00000000000000000000000000000111 m
b00000000000000000000000000000000 p
b00000000011100101010001100010011 s
0x
1y
b00000 z
b10101 {
b00101 |
b0010011 }
b010 ~
b00101 !!
b00111 "!
b00110 #!
1)!
b00000000000000000000000000011011 K!
b00000000000000000000000000011100 L!
b00000000000000000000000000010100 M!
#36
b00000000000000000000000000000001 C
b00000000000000000000000000000001 '!
0)!
b00000000000000000000000000000001 0!
#37
b00000000000100101000001010010011 #
b00000000000000000000000000100000 $
b00000000000000000000000000011100 %
b00000000000000000000000000011000 &
b00000000000000000000000000011100 '
b00000000000000000000000000011000 (
b00000000000000000000000000000001 )
b00000000000000000000000000000111 +
b110 .
b010 /
b0110 1
b00000000000000000000000000000000 3
b00000000000000000000000000100100 7
b00101 8
b00111 9
b1100010 =
1^
0_
0c
0f
b010 k
b000 l
b00000000000000000000000000001100 m
b00000000000000000000000000000001 o
b00000000000000000000000000000111 p
b00000000000000110000011001100011 s
1t
0y
b00110 z
b00000 {
b10101 |
b1100011 }
b000 ~
b00110 !!
b00000 "!
b01100 #!
1)!
b00000000000000000000000000100100 K!
b00000000000000000000000000100000 L!
b00000000000000000000000000011000 M!
#38
0)!
