lab2/waveform.vcd
$version Generated by VerilatedVcd $end
$timescale 1s $end

 $scope module TOP $end
  $var wire  1 _ clk $end
  $var wire 32 a r[0] [31:0] $end
  $var wire 32 k r[10] [31:0] $end
  $var wire 32 l r[11] [31:0] $end
  $var wire 32 m r[12] [31:0] $end
  $var wire 32 n r[13] [31:0] $end
  $var wire 32 o r[14] [31:0] $end
  $var wire 32 p r[15] [31:0] $end
  $var wire 32 q r[16] [31:0] $end
  $var wire 32 r r[17] [31:0] $end
  $var wire 32 s r[18] [31:0] $end
  $var wire 32 t r[19] [31:0] $end
  $var wire 32 b r[1] [31:0] $end
  $var wire 32 u r[20] [31:0] $end
  $var wire 32 v r[21] [31:0] $end
  $var wire 32 w r[22] [31:0] $end
  $var wire 32 x r[23] [31:0] $end
  $var wire 32 y r[24] [31:0] $end
  $var wire 32 z r[25] [31:0] $end
  $var wire 32 { r[26] [31:0] $end
  $var wire 32 | r[27] [31:0] $end
  $var wire 32 } r[28] [31:0] $end
  $var wire 32 ~ r[29] [31:0] $end
  $var wire 32 c r[2] [31:0] $end
  $var wire 32 !! r[30] [31:0] $end
  $var wire 32 "! r[31] [31:0] $end
  $var wire 32 d r[3] [31:0] $end
  $var wire 32 e r[4] [31:0] $end
  $var wire 32 f r[5] [31:0] $end
  $var wire 32 g r[6] [31:0] $end
  $var wire 32 h r[7] [31:0] $end
  $var wire 32 i r[8] [31:0] $end
  $var wire 32 j r[9] [31:0] $end
  $var wire  1 ` start $end
  $scope module SingleCycleCPU $end
   $var wire  1 _ clk $end
   $var wire 32 a r[0] [31:0] $end
   $var wire 32 k r[10] [31:0] $end
   $var wire 32 l r[11] [31:0] $end
   $var wire 32 m r[12] [31:0] $end
   $var wire 32 n r[13] [31:0] $end
   $var wire 32 o r[14] [31:0] $end
   $var wire 32 p r[15] [31:0] $end
   $var wire 32 q r[16] [31:0] $end
   $var wire 32 r r[17] [31:0] $end
   $var wire 32 s r[18] [31:0] $end
   $var wire 32 t r[19] [31:0] $end
   $var wire 32 b r[1] [31:0] $end
   $var wire 32 u r[20] [31:0] $end
   $var wire 32 v r[21] [31:0] $end
   $var wire 32 w r[22] [31:0] $end
   $var wire 32 x r[23] [31:0] $end
   $var wire 32 y r[24] [31:0] $end
   $var wire 32 z r[25] [31:0] $end
   $var wire 32 { r[26] [31:0] $end
   $var wire 32 | r[27] [31:0] $end
   $var wire 32 } r[28] [31:0] $end
   $var wire 32 ~ r[29] [31:0] $end
   $var wire 32 c r[2] [31:0] $end
   $var wire 32 !! r[30] [31:0] $end
   $var wire 32 "! r[31] [31:0] $end
   $var wire 32 d r[3] [31:0] $end
   $var wire 32 e r[4] [31:0] $end
   $var wire 32 f r[5] [31:0] $end
   $var wire 32 g r[6] [31:0] $end
   $var wire 32 h r[7] [31:0] $end
   $var wire 32 i r[8] [31:0] $end
   $var wire 32 j r[9] [31:0] $end
   $var wire  1 ` start $end
   $var wire 32 # w1 [31:0] $end
   $var wire  1 R w10 $end
   $var wire  1 S w11 $end
   $var wire  1 T w12 $end
   $var wire 32 W w13 [31:0] $end
   $var wire 32 X w14 [31:0] $end
   $var wire 32 & w15 [31:0] $end
   $var wire  4 L w16 [3:0] $end
   $var wire 32 Y w17 [31:0] $end
   $var wire 32 Z w18 [31:0] $end
   $var wire 32 [ w19 [31:0] $end
   $var wire 32 $ w2 [31:0] $end
   $var wire 32 #! w20 [31:0] $end
   $var wire 32 $! w21 [31:0] $end
   $var wire  1 \ w22 $end
   $var wire  1 ] w23 $end
   $var wire 32 V w3 [31:0] $end
   $var wire 32 % w4 [31:0] $end
   $var wire  1 O w5 $end
   $var wire  2 N w6 [1:0] $end
   $var wire  3 M w7 [2:0] $end
   $var wire  1 P w8 $end
   $var wire  1 Q w9 $end
   $scope module m_ALU $end
    $var wire 32 Y A [31:0] $end
    $var wire 32 [ ALUOut [31:0] $end
    $var wire  4 L ALUctl [3:0] $end
    $var wire 32 Z B [31:0] $end
    $var wire  1 \ BrEq $end
    $var wire  1 ] BrLT $end
    $var wire  6 ^ combined [5:0] $end
   $upscope $end
   $scope module m_ALUCtrl $end
    $var wire  4 L ALUCtl [3:0] $end
    $var wire  3 M ALUOp [2:0] $end
    $var wire  7 %! combined [6:0] $end
    $var wire  3 ( funct3 [2:0] $end
    $var wire  1 ' funct7 $end
   $upscope $end
   $scope module m_Adder_1 $end
    $var wire 32 # a [31:0] $end
    $var wire 32 &! b [31:0] $end
    $var wire 32 $ sum [31:0] $end
   $upscope $end
   $scope module m_BranchComp $end
    $var wire  1 \ BrEq $end
    $var wire  1 ] BrLT $end
    $var wire 32 W Rs1 [31:0] $end
    $var wire 32 X Rs2 [31:0] $end
   $upscope $end
   $scope module m_Control $end
    $var wire  3 M ALUOp [2:0] $end
    $var wire  1 S ALUSrc1 $end
    $var wire  1 T ALUSrc2 $end
    $var wire  1 Q PCSel $end
    $var wire  1 O memRead $end
    $var wire  1 P memWrite $end
    $var wire  2 N memtoReg [1:0] $end
    $var wire  7 ) opcode [6:0] $end
    $var wire  1 R regWrite $end
   $upscope $end
   $scope module m_DataMemory $end
    $var wire 32 [ address [31:0] $end
    $var wire  1 _ clk $end
    $var wire  1 O memRead $end
    $var wire  1 P memWrite $end
    $var wire 32 #! readData [31:0] $end
    $var wire  1 ` rst $end
    $var wire 32 X writeData [31:0] $end
   $upscope $end
   $scope module m_ImmGen $end
    $var wire 32 & imm [31:0] $end
    $var wire 32 % inst [31:0] $end
    $var wire  7 ) opcode [6:0] $end
   $upscope $end
   $scope module m_InstMem $end
    $var wire 32 % inst [31:0] $end
    $var wire 32 # readAddr [31:0] $end
   $upscope $end
   $scope module m_Mux_ALU_1 $end
    $var wire 32 Y out [31:0] $end
    $var wire 32 W s0 [31:0] $end
    $var wire 32 # s1 [31:0] $end
    $var wire  1 S sel $end
    $var wire 32 '! size [31:0] $end
   $upscope $end
   $scope module m_Mux_ALU_2 $end
    $var wire 32 Z out [31:0] $end
    $var wire 32 X s0 [31:0] $end
    $var wire 32 & s1 [31:0] $end
    $var wire  1 T sel $end
    $var wire 32 '! size [31:0] $end
   $upscope $end
   $scope module m_Mux_PC $end
    $var wire 32 V out [31:0] $end
    $var wire 32 $ s0 [31:0] $end
    $var wire 32 [ s1 [31:0] $end
    $var wire  1 Q sel $end
    $var wire 32 '! size [31:0] $end
   $upscope $end
   $scope module m_Mux_WriteData $end
    $var wire 32 $! out [31:0] $end
    $var wire 32 [ s0 [31:0] $end
    $var wire 32 #! s1 [31:0] $end
    $var wire 32 $ s2 [31:0] $end
    $var wire  2 N sel [1:0] $end
    $var wire 32 '! size [31:0] $end
   $upscope $end
   $scope module m_PC $end
    $var wire  1 _ clk $end
    $var wire 32 V pc_i [31:0] $end
    $var wire 32 # pc_o [31:0] $end
    $var wire  1 ` rst $end
   $upscope $end
   $scope module m_Register $end
    $var wire  1 _ clk $end
    $var wire 32 W readData1 [31:0] $end
    $var wire 32 X readData2 [31:0] $end
    $var wire  5 * readReg1 [4:0] $end
    $var wire  5 + readReg2 [4:0] $end
    $var wire  1 R regWrite $end
    $var wire 32 , regs[0] [31:0] $end
    $var wire 32 6 regs[10] [31:0] $end
    $var wire 32 7 regs[11] [31:0] $end
    $var wire 32 8 regs[12] [31:0] $end
    $var wire 32 9 regs[13] [31:0] $end
    $var wire 32 : regs[14] [31:0] $end
    $var wire 32 ; regs[15] [31:0] $end
    $var wire 32 < regs[16] [31:0] $end
    $var wire 32 = regs[17] [31:0] $end
    $var wire 32 > regs[18] [31:0] $end
    $var wire 32 ? regs[19] [31:0] $end
    $var wire 32 - regs[1] [31:0] $end
    $var wire 32 @ regs[20] [31:0] $end
    $var wire 32 A regs[21] [31:0] $end
    $var wire 32 B regs[22] [31:0] $end
    $var wire 32 C regs[23] [31:0] $end
    $var wire 32 D regs[24] [31:0] $end
    $var wire 32 E regs[25] [31:0] $end
    $var wire 32 F regs[26] [31:0] $end
    $var wire 32 G regs[27] [31:0] $end
    $var wire 32 H regs[28] [31:0] $end
    $var wire 32 I regs[29] [31:0] $end
    $var wire 32 . regs[2] [31:0] $end
    $var wire 32 J regs[30] [31:0] $end
    $var wire 32 K regs[31] [31:0] $end
    $var wire 32 / regs[3] [31:0] $end
    $var wire 32 0 regs[4] [31:0] $end
    $var wire 32 1 regs[5] [31:0] $end
    $var wire 32 2 regs[6] [31:0] $end
    $var wire 32 3 regs[7] [31:0] $end
    $var wire 32 4 regs[8] [31:0] $end
    $var wire 32 5 regs[9] [31:0] $end
    $var wire  1 ` rst $end
    $var wire 32 $! writeData [31:0] $end
    $var wire  5 U writeReg [4:0] $end
   $upscope $end
  $upscope $end
 $upscope $end
$enddefinitions $end


#0
b00000000000000000000000000000000 #
b00000000000000000000000000000100 $
b00000000010100000000011000010011 %
b00000000000000000000000000000101 &
0'
b000 (
b0010011 )
b00000 *
b00101 +
b00000000000000000000000000000000 ,
b00000000000000000000000000000000 -
b00000000000000000000000000000000 .
b00000000000000000000000000000000 /
b00000000000000000000000000000000 0
b00000000000000000000000000000000 1
b00000000000000000000000000000000 2
b00000000000000000000000000000000 3
b00000000000000000000000000000000 4
b00000000000000000000000000000000 5
b00000000000000000000000000000000 6
b00000000000000000000000000000000 7
b00000000000000000000000000000000 8
b00000000000000000000000000000000 9
b00000000000000000000000000000000 :
b00000000000000000000000000000000 ;
b00000000000000000000000000000000 <
b00000000000000000000000000000000 =
b00000000000000000000000000000000 >
b00000000000000000000000000000000 ?
b00000000000000000000000000000000 @
b00000000000000000000000000000000 A
b00000000000000000000000000000000 B
b00000000000000000000000000000000 C
b00000000000000000000000000000000 D
b00000000000000000000000000000000 E
b00000000000000000000000000000000 F
b00000000000000000000000000000000 G
b00000000000000000000000000000000 H
b00000000000000000000000000000000 I
b00000000000000000000000000000000 J
b00000000000000000000000000000000 K
b0001 L
b110 M
b00 N
0O
0P
0Q
1R
0S
1T
b01100 U
b00000000000000000000000000000100 V
b00000000000000000000000000000000 W
b00000000000000000000000000000000 X
b00000000000000000000000000000000 Y
b00000000000000000000000000000101 Z
b00000000000000000000000000000101 [
1\
0]
b000110 ^
0_
1`
b00000000000000000000000000000000 a
b00000000000000000000000000000000 b
b00000000000000000000000000000000 c
b00000000000000000000000000000000 d
b00000000000000000000000000000000 e
b00000000000000000000000000000000 f
b00000000000000000000000000000000 g
b00000000000000000000000000000000 h
b00000000000000000000000000000000 i
b00000000000000000000000000000000 j
b00000000000000000000000000000000 k
b00000000000000000000000000000000 l
b00000000000000000000000000000000 m
b00000000000000000000000000000000 n
b00000000000000000000000000000000 o
b00000000000000000000000000000000 p
b00000000000000000000000000000000 q
b00000000000000000000000000000000 r
b00000000000000000000000000000000 s
b00000000000000000000000000000000 t
b00000000000000000000000000000000 u
b00000000000000000000000000000000 v
b00000000000000000000000000000000 w
b00000000000000000000000000000000 x
b00000000000000000000000000000000 y
b00000000000000000000000000000000 z
b00000000000000000000000000000000 {
b00000000000000000000000000000000 |
b00000000000000000000000000000000 }
b00000000000000000000000000000000 ~
b00000000000000000000000000000000 !!
b00000000000000000000000000000000 "!
b00000000000000000000000000000000 #!
b00000000000000000000000000000101 $!
b1100000 %!
b00000000000000000000000000000100 &!
b00000000000000000000000000100000 '!
#1
b00000000000000000000000010000000 .
1_
0`
b00000000000000000000000010000000 c
#2
b00000000000000000000000000000101 8
0_
1`
b00000000000000000000000000000101 m
#3
b00000000000000000000000000000100 #
b00000000000000000000000000001000 $
b00000000110000000000000011101111 %
b00000000000000000000000000001100 &
b1101111 )
b01100 +
b011 M
b10 N
1Q
1S
b00001 U
b00000000000000000000000000010000 V
b00000000000000000000000000000101 X
b00000000000000000000000000000100 Y
b00000000000000000000000000001100 Z
b00000000000000000000000000010000 [
0\
1]
b000101 ^
1_
b00000000000000000000000000001000 $!
b0110000 %!
#4
b00000000000000000000000000001000 -
0_
b00000000000000000000000000001000 b
#5
b00000000000000000000000000010000 #
b00000000000000000000000000010100 $
b11111111010000010000000100010011 %
b11111111111111111111111111110100 &
1'
b0010011 )
b00010 *
b10100 +
b110 M
b00 N
0Q
0S
b00010 U
b00000000000000000000000000010100 V
b00000000000000000000000010000000 W
b00000000000000000000000000000000 X
b00000000000000000000000010000000 Y
b11111111111111111111111111110100 Z
b00000000000000000000000001110100 [
0]
b000100 ^
1_
b00000000000000000000000001110100 $!
b1101000 %!
#6
b00000000000000000000000001110100 .
b00000000000000000000000001110100 W
b00000000000000000000000001110100 Y
b00000000000000000000000001101000 [
0_
b00000000000000000000000001110100 c
b00000000000000000000000001101000 $!
#7
b00000000000000000000000000010100 #
b00000000000000000000000000011000 $
b00000000000100010010010000100011 %
b00000000000000000000000000001000 &
0'
b010 (
b0100011 )
b00001 +
b000 M
1P
0R
b01000 U
b00000000000000000000000000011000 V
b00000000000000000000000000001000 X
b00000000000000000000000000001000 Z
b00000000000000000000000001111100 [
1_
b00000000000000000000000001111100 $!
b0000010 %!
#8
0_
#9
b00000000000000000000000000011000 #
b00000000000000000000000000011100 $
b00000000100000010010001000100011 %
b00000000000000000000000000000100 &
b01000 +
b00100 U
b00000000000000000000000000011100 V
b00000000000000000000000000000000 X
b00000000000000000000000000000100 Z
b00000000000000000000000001111000 [
1_
b00000000000000000000000001111000 $!
#10
0_
#11
b00000000000000000000000000011100 #
b00000000000000000000000000100000 $
b00000000000000000000010100010011 %
b00000000000000000000000000000000 &
b000 (
b0010011 )
b00000 *
b00000 +
b110 M
0P
1R
b01010 U
b00000000000000000000000000100000 V
b00000000000000000000000000000000 W
b00000000000000000000000000000000 Y
b00000000000000000000000000000000 Z
b00000000000000000000000000000000 [
1\
b000110 ^
1_
b00000000000000000000000000000000 $!
b1100000 %!
#12
0_
#13
b00000000000000000000000000100000 #
b00000000000000000000000000100100 $
b00000010000001100000011001100011 %
b00000000000000000000000000101100 &
b1100011 )
b01100 *
b0101 L
b010 M
1Q
0R
1S
b01100 U
b00000000000000000000000000100100 V
b00000000000000000000000000000101 W
b00000000000000000000000000100000 Y
b00000000000000000000000000101100 Z
b00000000000000000000000000100100 [
0\
b010100 ^
1_
b00000000000000000000000000100100 $!
b0100000 %!
#14
0_
#15
b00000000000000000000000000100100 #
b00000000000000000000000000101000 $
b00000000000101010000010100010011 %
b00000000000000000000000000000001 &
b0010011 )
b01010 *
b00001 +
b0001 L
b110 M
0Q
1R
0S
b01010 U
b00000000000000000000000000101000 V
b00000000000000000000000000000000 W
b00000000000000000000000000001000 X
b00000000000000000000000000000000 Y
b00000000000000000000000000000001 Z
b00000000000000000000000000000001 [
1]
b000101 ^
1_
b00000000000000000000000000000001 $!
b1100000 %!
#16
b00000000000000000000000000000001 6
b00000000000000000000000000000001 W
b00000000000000000000000000000001 Y
b00000000000000000000000000000010 [
0_
b00000000000000000000000000000001 k
b00000000000000000000000000000010 $!
#17
b00000000000000000000000000101000 #
b00000000000000000000000000101100 $
b00000010101001100000001001100011 %
b00000000000000000000000000100100 &
b1100011 )
b01100 *
b01010 +
b0101 L
b010 M
1Q
0R
1S
b00100 U
b00000000000000000000000000101100 V
b00000000000000000000000000000101 W
b00000000000000000000000000000001 X
b00000000000000000000000000101000 Y
b00000000000000000000000000100100 Z
b00000000000000000000000000101100 [
0]
b010100 ^
1_
b00000000000000000000000000101100 $!
b0100000 %!
#18
0_
#19
b00000000000000000000000000101100 #
b00000000000000000000000000110000 $
b11111111111101100000011000010011 %
b11111111111111111111111111111111 &
1'
b0010011 )
b11111 +
b0001 L
b110 M
0Q
1R
0S
b01100 U
b00000000000000000000000000110000 V
b00000000000000000000000000000000 X
b00000000000000000000000000000101 Y
b11111111111111111111111111111111 Z
b00000000000000000000000000000100 [
b000100 ^
1_
b00000000000000000000000000000100 $!
b1101000 %!
#20
b00000000000000000000000000000100 8
b00000000000000000000000000000100 W
b00000000000000000000000000000100 Y
b00000000000000000000000000000011 [
0_
b00000000000000000000000000000100 m
b00000000000000000000000000000011 $!
#21
b00000000000000000000000000110000 #
b00000000000000000000000000110100 $
b00000000110000010010000000100011 %
b00000000000000000000000000000000 &
0'
b010 (
b0100011 )
b00010 *
b01100 +
b000 M
1P
0R
b00000 U
b00000000000000000000000000110100 V
b00000000000000000000000001110100 W
b00000000000000000000000000000100 X
b00000000000000000000000001110100 Y
b00000000000000000000000000000000 Z
b00000000000000000000000001110100 [
1_
b00000000000000000000000001110100 $!
b0000010 %!
#22
0_
#23
b00000000000000000000000000110100 #
b00000000000000000000000000111000 $
b11111101110111111111000011101111 %
b11111111111111111111111111011100 &
1'
b111 (
b1101111 )
b11111 *
b11101 +
b011 M
b10 N
0P
1Q
1R
1S
b00001 U
b00000000000000000000000000010000 V
b00000000000000000000000000000000 W
b00000000000000000000000000000000 X
b00000000000000000000000000110100 Y
b11111111111111111111111111011100 Z
b00000000000000000000000000010000 [
1\
b000110 ^
1_
b00000000000000000000000000111000 $!
b0111111 %!
#24
b00000000000000000000000000111000 -
0_
b00000000000000000000000000111000 b
#25
b00000000000000000000000000010000 #
b00000000000000000000000000010100 $
b11111111010000010000000100010011 %
b11111111111111111111111111110100 &
b000 (
b0010011 )
b00010 *
b10100 +
b110 M
b00 N
0Q
0S
b00010 U
b00000000000000000000000000010100 V
b00000000000000000000000001110100 W
b00000000000000000000000001110100 Y
b11111111111111111111111111110100 Z
b00000000000000000000000001101000 [
0\
b000100 ^
1_
b00000000000000000000000001101000 $!
b1101000 %!
#26
b00000000000000000000000001101000 .
b00000000000000000000000001101000 W
b00000000000000000000000001101000 Y
b00000000000000000000000001011100 [
0_
b00000000000000000000000001101000 c
b00000000000000000000000001011100 $!
#27
b00000000000000000000000000010100 #
b00000000000000000000000000011000 $
b00000000000100010010010000100011 %
b00000000000000000000000000001000 &
0'
b010 (
b0100011 )
b00001 +
b000 M
1P
0R
b01000 U
b00000000000000000000000000011000 V
b00000000000000000000000000111000 X
b00000000000000000000000000001000 Z
b00000000000000000000000001110000 [
1_
b00000000000000000000000001110000 $!
b0000010 %!
#28
0_
#29
b00000000000000000000000000011000 #
b00000000000000000000000000011100 $
b00000000100000010010001000100011 %
b00000000000000000000000000000100 &
b01000 +
b00100 U
b00000000000000000000000000011100 V
b00000000000000000000000000000000 X
b00000000000000000000000000000100 Z
b00000000000000000000000001101100 [
1_
b00000000000000000000000001101100 $!
#30
0_
#31
b00000000000000000000000000011100 #
b00000000000000000000000000100000 $
b00000000000000000000010100010011 %
b00000000000000000000000000000000 &
b000 (
b0010011 )
b00000 *
b00000 +
b110 M
0P
1R
b01010 U
b00000000000000000000000000100000 V
b00000000000000000000000000000000 W
b00000000000000000000000000000000 Y
b00000000000000000000000000000000 Z
b00000000000000000000000000000000 [
1\
b000110 ^
1_
b00000000000000000000000000000000 $!
b1100000 %!
#32
b00000000000000000000000000000000 6
0_
b00000000000000000000000000000000 k
#33
b00000000000000000000000000100000 #
b00000000000000000000000000100100 $
b00000010000001100000011001100011 %
b00000000000000000000000000101100 &
b1100011 )
b01100 *
b0101 L
b010 M
1Q
0R
1S
b01100 U
b00000000000000000000000000100100 V
b00000000000000000000000000000100 W
b00000000000000000000000000100000 Y
b00000000000000000000000000101100 Z
b00000000000000000000000000100100 [
0\
b010100 ^
1_
b00000000000000000000000000100100 $!
b0100000 %!
#34
0_
#35
b00000000000000000000000000100100 #
b00000000000000000000000000101000 $
b00000000000101010000010100010011 %
b00000000000000000000000000000001 &
b0010011 )
b01010 *
b00001 +
b0001 L
b110 M
0Q
1R
0S
b01010 U
b00000000000000000000000000101000 V
b00000000000000000000000000000000 W
b00000000000000000000000000111000 X
b00000000000000000000000000000000 Y
b00000000000000000000000000000001 Z
b00000000000000000000000000000001 [
1]
b000101 ^
1_
b00000000000000000000000000000001 $!
b1100000 %!
#36
b00000000000000000000000000000001 6
b00000000000000000000000000000001 W
b00000000000000000000000000000001 Y
b00000000000000000000000000000010 [
0_
b00000000000000000000000000000001 k
b00000000000000000000000000000010 $!
#37
b00000000000000000000000000101000 #
b00000000000000000000000000101100 $
b00000010101001100000001001100011 %
b00000000000000000000000000100100 &
b1100011 )
b01100 *
b01010 +
b0101 L
b010 M
1Q
0R
1S
b00100 U
b00000000000000000000000000101100 V
b00000000000000000000000000000100 W
b00000000000000000000000000000001 X
b00000000000000000000000000101000 Y
b00000000000000000000000000100100 Z
b00000000000000000000000000101100 [
0]
b010100 ^
1_
b00000000000000000000000000101100 $!
b0100000 %!
#38
0_
#39
b00000000000000000000000000101100 #
b00000000000000000000000000110000 $
b11111111111101100000011000010011 %
b11111111111111111111111111111111 &
1'
b0010011 )
b11111 +
b0001 L
b110 M
0Q
1R
0S
b01100 U
b00000000000000000000000000110000 V
b00000000000000000000000000000000 X
b00000000000000000000000000000100 Y
b11111111111111111111111111111111 Z
b00000000000000000000000000000011 [
b000100 ^
1_
b00000000000000000000000000000011 $!
b1101000 %!
#40
b00000000000000000000000000000011 8
b00000000000000000000000000000011 W
b00000000000000000000000000000011 Y
b00000000000000000000000000000010 [
0_
b00000000000000000000000000000011 m
b00000000000000000000000000000010 $!
#41
b00000000000000000000000000110000 #
b00000000000000000000000000110100 $
b00000000110000010010000000100011 %
b00000000000000000000000000000000 &
0'
b010 (
b0100011 )
b00010 *
b01100 +
b000 M
1P
0R
b00000 U
b00000000000000000000000000110100 V
b00000000000000000000000001101000 W
b00000000000000000000000000000011 X
b00000000000000000000000001101000 Y
b00000000000000000000000000000000 Z
b00000000000000000000000001101000 [
1_
b00000000000000000000000001101000 $!
b0000010 %!
#42
0_
#43
b00000000000000000000000000110100 #
b00000000000000000000000000111000 $
b11111101110111111111000011101111 %
b11111111111111111111111111011100 &
1'
b111 (
b1101111 )
b11111 *
b11101 +
b011 M
b10 N
0P
1Q
1R
1S
b00001 U
b00000000000000000000000000010000 V
b00000000000000000000000000000000 W
b00000000000000000000000000000000 X
b00000000000000000000000000110100 Y
b11111111111111111111111111011100 Z
b00000000000000000000000000010000 [
1\
b000110 ^
1_
b00000000000000000000000000111000 $!
b0111111 %!
#44
0_
#45
b00000000000000000000000000010000 #
b00000000000000000000000000010100 $
b11111111010000010000000100010011 %
b11111111111111111111111111110100 &
b000 (
b0010011 )
b00010 *
b10100 +
b110 M
b00 N
0Q
0S
b00010 U
b00000000000000000000000000010100 V
b00000000000000000000000001101000 W
b00000000000000000000000001101000 Y
b11111111111111111111111111110100 Z
b00000000000000000000000001011100 [
0\
b000100 ^
1_
b00000000000000000000000001011100 $!
b1101000 %!
#46
b00000000000000000000000001011100 .
b00000000000000000000000001011100 W
b00000000000000000000000001011100 Y
b00000000000000000000000001010000 [
0_
b00000000000000000000000001011100 c
b00000000000000000000000001010000 $!
#47
b00000000000000000000000000010100 #
b00000000000000000000000000011000 $
b00000000000100010010010000100011 %
b00000000000000000000000000001000 &
0'
b010 (
b0100011 )
b00001 +
b000 M
1P
0R
b01000 U
b00000000000000000000000000011000 V
b00000000000000000000000000111000 X
b00000000000000000000000000001000 Z
b00000000000000000000000001100100 [
1_
b00000000000000000000000001100100 $!
b0000010 %!
#48
0_
#49
b00000000000000000000000000011000 #
b00000000000000000000000000011100 $
b00000000100000010010001000100011 %
b00000000000000000000000000000100 &
b01000 +
b00100 U
b00000000000000000000000000011100 V
b00000000000000000000000000000000 X
b00000000000000000000000000000100 Z
b00000000000000000000000001100000 [
1_
b00000000000000000000000001100000 $!
#50
0_
#51
b00000000000000000000000000011100 #
b00000000000000000000000000100000 $
b00000000000000000000010100010011 %
b00000000000000000000000000000000 &
b000 (
b0010011 )
b00000 *
b00000 +
b110 M
0P
1R
b01010 U
b00000000000000000000000000100000 V
b00000000000000000000000000000000 W
b00000000000000000000000000000000 Y
b00000000000000000000000000000000 Z
b00000000000000000000000000000000 [
1\
b000110 ^
1_
b00000000000000000000000000000000 $!
b1100000 %!
#52
b00000000000000000000000000000000 6
0_
b00000000000000000000000000000000 k
#53
b00000000000000000000000000100000 #
b00000000000000000000000000100100 $
b00000010000001100000011001100011 %
b00000000000000000000000000101100 &
b1100011 )
b01100 *
b0101 L
b010 M
1Q
0R
1S
b01100 U
b00000000000000000000000000100100 V
b00000000000000000000000000000011 W
b00000000000000000000000000100000 Y
b00000000000000000000000000101100 Z
b00000000000000000000000000100100 [
0\
b010100 ^
1_
b00000000000000000000000000100100 $!
b0100000 %!
#54
0_
#55
b00000000000000000000000000100100 #
b00000000000000000000000000101000 $
b00000000000101010000010100010011 %
b00000000000000000000000000000001 &
b0010011 )
b01010 *
b00001 +
b0001 L
b110 M
0Q
1R
0S
b01010 U
b00000000000000000000000000101000 V
b00000000000000000000000000000000 W
b00000000000000000000000000111000 X
b00000000000000000000000000000000 Y
b00000000000000000000000000000001 Z
b00000000000000000000000000000001 [
1]
b000101 ^
1_
b00000000000000000000000000000001 $!
b1100000 %!
#56
b00000000000000000000000000000001 6
b00000000000000000000000000000001 W
b00000000000000000000000000000001 Y
b00000000000000000000000000000010 [
0_
b00000000000000000000000000000001 k
b00000000000000000000000000000010 $!
#57
b00000000000000000000000000101000 #
b00000000000000000000000000101100 $
b00000010101001100000001001100011 %
b00000000000000000000000000100100 &
b1100011 )
b01100 *
b01010 +
b0101 L
b010 M
1Q
0R
1S
b00100 U
b00000000000000000000000000101100 V
b00000000000000000000000000000011 W
b00000000000000000000000000000001 X
b00000000000000000000000000101000 Y
b00000000000000000000000000100100 Z
b00000000000000000000000000101100 [
0]
b010100 ^
1_
b00000000000000000000000000101100 $!
b0100000 %!
#58
0_
#59
b00000000000000000000000000101100 #
b00000000000000000000000000110000 $
b11111111111101100000011000010011 %
b11111111111111111111111111111111 &
1'
b0010011 )
b11111 +
b0001 L
b110 M
0Q
1R
0S
b01100 U
b00000000000000000000000000110000 V
b00000000000000000000000000000000 X
b00000000000000000000000000000011 Y
b11111111111111111111111111111111 Z
b00000000000000000000000000000010 [
b000100 ^
1_
b00000000000000000000000000000010 $!
b1101000 %!
#60
b00000000000000000000000000000010 8
b00000000000000000000000000000010 W
b00000000000000000000000000000010 Y
b00000000000000000000000000000001 [
0_
b00000000000000000000000000000010 m
b00000000000000000000000000000001 $!
#61
b00000000000000000000000000110000 #
b00000000000000000000000000110100 $
b00000000110000010010000000100011 %
b00000000000000000000000000000000 &
0'
b010 (
b0100011 )
b00010 *
b01100 +
b000 M
1P
0R
b00000 U
b00000000000000000000000000110100 V
b00000000000000000000000001011100 W
b00000000000000000000000000000010 X
b00000000000000000000000001011100 Y
b00000000000000000000000000000000 Z
b00000000000000000000000001011100 [
1_
b00000000000000000000000001011100 $!
b0000010 %!
#62
0_
#63
b00000000000000000000000000110100 #
b00000000000000000000000000111000 $
b11111101110111111111000011101111 %
b11111111111111111111111111011100 &
1'
b111 (
b1101111 )
b11111 *
b11101 +
b011 M
b10 N
0P
1Q
1R
1S
b00001 U
b00000000000000000000000000010000 V
b00000000000000000000000000000000 W
b00000000000000000000000000000000 X
b00000000000000000000000000110100 Y
b11111111111111111111111111011100 Z
b00000000000000000000000000010000 [
1\
b000110 ^
1_
b00000000000000000000000000111000 $!
b0111111 %!
#64
0_
#65
b00000000000000000000000000010000 #
b00000000000000000000000000010100 $
b11111111010000010000000100010011 %
b11111111111111111111111111110100 &
b000 (
b0010011 )
b00010 *
b10100 +
b110 M
b00 N
0Q
0S
b00010 U
b00000000000000000000000000010100 V
b00000000000000000000000001011100 W
b00000000000000000000000001011100 Y
b11111111111111111111111111110100 Z
b00000000000000000000000001010000 [
0\
b000100 ^
1_
b00000000000000000000000001010000 $!
b1101000 %!
#66
b00000000000000000000000001010000 .
b00000000000000000000000001010000 W
b00000000000000000000000001010000 Y
b00000000000000000000000001000100 [
0_
b00000000000000000000000001010000 c
b00000000000000000000000001000100 $!
#67
b00000000000000000000000000010100 #
b00000000000000000000000000011000 $
b00000000000100010010010000100011 %
b00000000000000000000000000001000 &
0'
b010 (
b0100011 )
b00001 +
b000 M
1P
0R
b01000 U
b00000000000000000000000000011000 V
b00000000000000000000000000111000 X
b00000000000000000000000000001000 Z
b00000000000000000000000001011000 [
1_
b00000000000000000000000001011000 $!
b0000010 %!
#68
0_
#69
b00000000000000000000000000011000 #
b00000000000000000000000000011100 $
b00000000100000010010001000100011 %
b00000000000000000000000000000100 &
b01000 +
b00100 U
b00000000000000000000000000011100 V
b00000000000000000000000000000000 X
b00000000000000000000000000000100 Z
b00000000000000000000000001010100 [
1_
b00000000000000000000000001010100 $!
#70
0_
#71
b00000000000000000000000000011100 #
b00000000000000000000000000100000 $
b00000000000000000000010100010011 %
b00000000000000000000000000000000 &
b000 (
b0010011 )
b00000 *
b00000 +
b110 M
0P
1R
b01010 U
b00000000000000000000000000100000 V
b00000000000000000000000000000000 W
b00000000000000000000000000000000 Y
b00000000000000000000000000000000 Z
b00000000000000000000000000000000 [
1\
b000110 ^
1_
b00000000000000000000000000000000 $!
b1100000 %!
#72
b00000000000000000000000000000000 6
0_
b00000000000000000000000000000000 k
#73
b00000000000000000000000000100000 #
b00000000000000000000000000100100 $
b00000010000001100000011001100011 %
b00000000000000000000000000101100 &
b1100011 )
b01100 *
b0101 L
b010 M
1Q
0R
1S
b01100 U
b00000000000000000000000000100100 V
b00000000000000000000000000000010 W
b00000000000000000000000000100000 Y
b00000000000000000000000000101100 Z
b00000000000000000000000000100100 [
0\
b010100 ^
1_
b00000000000000000000000000100100 $!
b0100000 %!
#74
0_
