lab3/waveform.vcd
$version Generated by VerilatedVcd $end
$timescale 1s $end

 $scope module TOP $end
  $var wire  1 | clk $end
  $var wire 32 ~ r[0] [31:0] $end
  $var wire 32 *! r[10] [31:0] $end
  $var wire 32 +! r[11] [31:0] $end
  $var wire 32 ,! r[12] [31:0] $end
  $var wire 32 -! r[13] [31:0] $end
  $var wire 32 .! r[14] [31:0] $end
  $var wire 32 /! r[15] [31:0] $end
  $var wire 32 0! r[16] [31:0] $end
  $var wire 32 1! r[17] [31:0] $end
  $var wire 32 2! r[18] [31:0] $end
  $var wire 32 3! r[19] [31:0] $end
  $var wire 32 !! r[1] [31:0] $end
  $var wire 32 4! r[20] [31:0] $end
  $var wire 32 5! r[21] [31:0] $end
  $var wire 32 6! r[22] [31:0] $end
  $var wire 32 7! r[23] [31:0] $end
  $var wire 32 8! r[24] [31:0] $end
  $var wire 32 9! r[25] [31:0] $end
  $var wire 32 :! r[26] [31:0] $end
  $var wire 32 ;! r[27] [31:0] $end
  $var wire 32 <! r[28] [31:0] $end
  $var wire 32 =! r[29] [31:0] $end
  $var wire 32 "! r[2] [31:0] $end
  $var wire 32 >! r[30] [31:0] $end
  $var wire 32 ?! r[31] [31:0] $end
  $var wire 32 #! r[3] [31:0] $end
  $var wire 32 $! r[4] [31:0] $end
  $var wire 32 %! r[5] [31:0] $end
  $var wire 32 &! r[6] [31:0] $end
  $var wire 32 '! r[7] [31:0] $end
  $var wire 32 (! r[8] [31:0] $end
  $var wire 32 )! r[9] [31:0] $end
  $var wire  1 } start $end
  $scope module SingleCycleCPU $end
   $var wire 32 z EXMEM_out_aluResult [31:0] $end
   $var wire  1 5 EXMEM_out_branch $end
   $var wire  1 { EXMEM_out_memRead $end
   $var wire  1 4 EXMEM_out_memWrite $end
   $var wire  1 a EXMEM_out_memtoReg $end
   $var wire 32 2 EXMEM_out_pc [31:0] $end
   $var wire  5 h EXMEM_out_rd [4:0] $end
   $var wire  1 b EXMEM_out_regWrite $end
   $var wire 32 3 EXMEM_out_rs2 [31:0] $end
   $var wire  1 6 EXMEM_out_zero $end
   $var wire  2 - IDEX_out_ALUOp [1:0] $end
   $var wire  1 0 IDEX_out_ALUSrc $end
   $var wire  1 / IDEX_out_branch $end
   $var wire  3 , IDEX_out_funct3 [2:0] $end
   $var wire  1 1 IDEX_out_funct7 $end
   $var wire 32 + IDEX_out_imm [31:0] $end
   $var wire  1 y IDEX_out_memRead $end
   $var wire  1 . IDEX_out_memWrite $end
   $var wire  1 ` IDEX_out_memtoReg $end
   $var wire 32 ( IDEX_out_pc [31:0] $end
   $var wire  5 g IDEX_out_rd [4:0] $end
   $var wire  1 _ IDEX_out_regWrite $end
   $var wire 32 ) IDEX_out_rs1 [31:0] $end
   $var wire 32 * IDEX_out_rs2 [31:0] $end
   $var wire 32 ^ IFID_out_inst [31:0] $end
   $var wire 32 ' IFID_out_pc [31:0] $end
   $var wire 32 d MEMWB_out_aluResult [31:0] $end
   $var wire 32 c MEMWB_out_memData [31:0] $end
   $var wire  1 e MEMWB_out_memtoReg $end
   $var wire  5 i MEMWB_out_rd [4:0] $end
   $var wire  1 f MEMWB_out_regWrite $end
   $var wire  1 | clk $end
   $var wire 32 ~ r[0] [31:0] $end
   $var wire 32 *! r[10] [31:0] $end
   $var wire 32 +! r[11] [31:0] $end
   $var wire 32 ,! r[12] [31:0] $end
   $var wire 32 -! r[13] [31:0] $end
   $var wire 32 .! r[14] [31:0] $end
   $var wire 32 /! r[15] [31:0] $end
   $var wire 32 0! r[16] [31:0] $end
   $var wire 32 1! r[17] [31:0] $end
   $var wire 32 2! r[18] [31:0] $end
   $var wire 32 3! r[19] [31:0] $end
   $var wire 32 !! r[1] [31:0] $end
   $var wire 32 4! r[20] [31:0] $end
   $var wire 32 5! r[21] [31:0] $end
   $var wire 32 6! r[22] [31:0] $end
   $var wire 32 7! r[23] [31:0] $end
   $var wire 32 8! r[24] [31:0] $end
   $var wire 32 9! r[25] [31:0] $end
   $var wire 32 :! r[26] [31:0] $end
   $var wire 32 ;! r[27] [31:0] $end
   $var wire 32 <! r[28] [31:0] $end
   $var wire 32 =! r[29] [31:0] $end
   $var wire 32 "! r[2] [31:0] $end
   $var wire 32 >! r[30] [31:0] $end
   $var wire 32 ?! r[31] [31:0] $end
   $var wire 32 #! r[3] [31:0] $end
   $var wire 32 $! r[4] [31:0] $end
   $var wire 32 %! r[5] [31:0] $end
   $var wire 32 &! r[6] [31:0] $end
   $var wire 32 '! r[7] [31:0] $end
   $var wire 32 (! r[8] [31:0] $end
   $var wire 32 )! r[9] [31:0] $end
   $var wire  1 } start $end
   $var wire 32 Y w1 [31:0] $end
   $var wire  1 w w10 $end
   $var wire 32 @! w11 [31:0] $end
   $var wire 32 A! w12 [31:0] $end
   $var wire 32 \ w13 [31:0] $end
   $var wire 32 # w14 [31:0] $end
   $var wire 32 $ w15 [31:0] $end
   $var wire  1 x w16 $end
   $var wire 32 B! w18 [31:0] $end
   $var wire 32 p w19 [31:0] $end
   $var wire 32 Z w2 [31:0] $end
   $var wire 32 C! w20 [31:0] $end
   $var wire 32 ] w21 [31:0] $end
   $var wire  4 & w22 [3:0] $end
   $var wire 32 % w23 [31:0] $end
   $var wire 32 [ w3 [31:0] $end
   $var wire  1 r w4 $end
   $var wire  1 s w5 $end
   $var wire  1 t w6 $end
   $var wire  2 q w7 [1:0] $end
   $var wire  1 u w8 $end
   $var wire  1 v w9 $end
   $scope module m_ALU $end
    $var wire 32 ) A [31:0] $end
    $var wire 32 p ALUOut [31:0] $end
    $var wire  4 & ALUctl [3:0] $end
    $var wire 32 % B [31:0] $end
    $var wire  1 x zero $end
   $upscope $end
   $scope module m_ALUCtrl $end
    $var wire  4 & ALUCtl [3:0] $end
    $var wire  2 - ALUOp [1:0] $end
    $var wire  6 7 combined [5:0] $end
    $var wire  3 , funct3 [2:0] $end
    $var wire  1 1 funct7 $end
   $upscope $end
   $scope module m_Adder_1 $end
    $var wire 32 Y a [31:0] $end
    $var wire 32 D! b [31:0] $end
    $var wire 32 Z sum [31:0] $end
   $upscope $end
   $scope module m_Adder_2 $end
    $var wire 32 ( a [31:0] $end
    $var wire 32 # b [31:0] $end
    $var wire 32 $ sum [31:0] $end
   $upscope $end
   $scope module m_Control $end
    $var wire  2 q ALUOp [1:0] $end
    $var wire  1 v ALUSrc $end
    $var wire  1 r branch $end
    $var wire  1 s memRead $end
    $var wire  1 u memWrite $end
    $var wire  1 t memtoReg $end
    $var wire  7 j opcode [6:0] $end
    $var wire  1 w regWrite $end
   $upscope $end
   $scope module m_DataMemory $end
    $var wire 32 z address [31:0] $end
    $var wire  1 | clk $end
    $var wire  1 { memRead $end
    $var wire  1 4 memWrite $end
    $var wire 32 C! readData [31:0] $end
    $var wire  1 } rst $end
    $var wire 32 3 writeData [31:0] $end
   $upscope $end
   $scope module m_EX_MEM_reg $end
    $var wire  1 | clk $end
    $var wire 32 p in_aluResult [31:0] $end
    $var wire  1 / in_branch $end
    $var wire  1 y in_memRead $end
    $var wire  1 . in_memWrite $end
    $var wire  1 ` in_memtoReg $end
    $var wire 32 $ in_pc [31:0] $end
    $var wire  5 g in_rd [4:0] $end
    $var wire  1 _ in_regWrite $end
    $var wire 32 * in_rs2 [31:0] $end
    $var wire  1 x in_zero $end
    $var wire 32 z out_aluResult [31:0] $end
    $var wire  1 5 out_branch $end
    $var wire  1 { out_memRead $end
    $var wire  1 4 out_memWrite $end
    $var wire  1 a out_memtoReg $end
    $var wire 32 2 out_pc [31:0] $end
    $var wire  5 h out_rd [4:0] $end
    $var wire  1 b out_regWrite $end
    $var wire 32 3 out_rs2 [31:0] $end
    $var wire  1 6 out_zero $end
    $var wire  1 } rst $end
   $upscope $end
   $scope module m_ID_EX_reg $end
    $var wire  1 | clk $end
    $var wire  2 q in_ALUOp [1:0] $end
    $var wire  1 v in_ALUSrc $end
    $var wire  1 r in_branch $end
    $var wire  3 k in_funct3 [2:0] $end
    $var wire  1 l in_funct7 $end
    $var wire 32 \ in_imm [31:0] $end
    $var wire  1 s in_memRead $end
    $var wire  1 u in_memWrite $end
    $var wire  1 t in_memtoReg $end
    $var wire 32 ' in_pc [31:0] $end
    $var wire  5 m in_rd [4:0] $end
    $var wire  1 w in_regWrite $end
    $var wire 32 @! in_rs1 [31:0] $end
    $var wire 32 A! in_rs2 [31:0] $end
    $var wire  2 - out_ALUOp [1:0] $end
    $var wire  1 0 out_ALUSrc $end
    $var wire  1 / out_branch $end
    $var wire  3 , out_funct3 [2:0] $end
    $var wire  1 1 out_funct7 $end
    $var wire 32 + out_imm [31:0] $end
    $var wire  1 y out_memRead $end
    $var wire  1 . out_memWrite $end
    $var wire  1 ` out_memtoReg $end
    $var wire 32 ( out_pc [31:0] $end
    $var wire  5 g out_rd [4:0] $end
    $var wire  1 _ out_regWrite $end
    $var wire 32 ) out_rs1 [31:0] $end
    $var wire 32 * out_rs2 [31:0] $end
    $var wire  1 } rst $end
   $upscope $end
   $scope module m_IF_ID_reg $end
    $var wire  1 | clk $end
    $var wire 32 [ inst_in [31:0] $end
    $var wire 32 ^ inst_out [31:0] $end
    $var wire 32 Y pc_in [31:0] $end
    $var wire 32 ' pc_out [31:0] $end
    $var wire  1 } rst $end
   $upscope $end
   $scope module m_ImmGen $end
    $var wire 32 \ imm [31:0] $end
    $var wire 32 ^ inst [31:0] $end
    $var wire  7 j opcode [6:0] $end
   $upscope $end
   $scope module m_InstMem $end
    $var wire 32 [ inst [31:0] $end
    $var wire 32 Y readAddr [31:0] $end
   $upscope $end
   $scope module m_MEM_WB_reg $end
    $var wire  1 | clk $end
    $var wire 32 z in_aluResult [31:0] $end
    $var wire 32 C! in_memData [31:0] $end
    $var wire  1 a in_memtoReg $end
    $var wire  5 h in_rd [4:0] $end
    $var wire  1 b in_regWrite $end
    $var wire 32 d out_aluResult [31:0] $end
    $var wire 32 c out_memData [31:0] $end
    $var wire  1 e out_memtoReg $end
    $var wire  5 i out_rd [4:0] $end
    $var wire  1 f out_regWrite $end
    $var wire  1 } rst $end
   $upscope $end
   $scope module m_Mux_ALU $end
    $var wire 32 % out [31:0] $end
    $var wire 32 * s0 [31:0] $end
    $var wire 32 + s1 [31:0] $end
    $var wire  1 0 sel $end
    $var wire 32 E! size [31:0] $end
   $upscope $end
   $scope module m_Mux_PC $end
    $var wire 32 B! out [31:0] $end
    $var wire 32 Z s0 [31:0] $end
    $var wire 32 2 s1 [31:0] $end
    $var wire  1 8 sel $end
    $var wire 32 E! size [31:0] $end
   $upscope $end
   $scope module m_Mux_WriteData $end
    $var wire 32 ] out [31:0] $end
    $var wire 32 d s0 [31:0] $end
    $var wire 32 c s1 [31:0] $end
    $var wire  1 e sel $end
    $var wire 32 E! size [31:0] $end
   $upscope $end
   $scope module m_PC $end
    $var wire  1 | clk $end
    $var wire 32 B! pc_i [31:0] $end
    $var wire 32 Y pc_o [31:0] $end
    $var wire  1 } rst $end
   $upscope $end
   $scope module m_Register $end
    $var wire  1 | clk $end
    $var wire 32 @! readData1 [31:0] $end
    $var wire 32 A! readData2 [31:0] $end
    $var wire  5 n readReg1 [4:0] $end
    $var wire  5 o readReg2 [4:0] $end
    $var wire  1 f regWrite $end
    $var wire 32 9 regs[0] [31:0] $end
    $var wire 32 C regs[10] [31:0] $end
    $var wire 32 D regs[11] [31:0] $end
    $var wire 32 E regs[12] [31:0] $end
    $var wire 32 F regs[13] [31:0] $end
    $var wire 32 G regs[14] [31:0] $end
    $var wire 32 H regs[15] [31:0] $end
    $var wire 32 I regs[16] [31:0] $end
    $var wire 32 J regs[17] [31:0] $end
    $var wire 32 K regs[18] [31:0] $end
    $var wire 32 L regs[19] [31:0] $end
    $var wire 32 : regs[1] [31:0] $end
    $var wire 32 M regs[20] [31:0] $end
    $var wire 32 N regs[21] [31:0] $end
    $var wire 32 O regs[22] [31:0] $end
    $var wire 32 P regs[23] [31:0] $end
    $var wire 32 Q regs[24] [31:0] $end
    $var wire 32 R regs[25] [31:0] $end
    $var wire 32 S regs[26] [31:0] $end
    $var wire 32 T regs[27] [31:0] $end
    $var wire 32 U regs[28] [31:0] $end
    $var wire 32 V regs[29] [31:0] $end
    $var wire 32 ; regs[2] [31:0] $end
    $var wire 32 W regs[30] [31:0] $end
    $var wire 32 X regs[31] [31:0] $end
    $var wire 32 < regs[3] [31:0] $end
    $var wire 32 = regs[4] [31:0] $end
    $var wire 32 > regs[5] [31:0] $end
    $var wire 32 ? regs[6] [31:0] $end
    $var wire 32 @ regs[7] [31:0] $end
    $var wire 32 A regs[8] [31:0] $end
    $var wire 32 B regs[9] [31:0] $end
    $var wire  1 } rst $end
    $var wire 32 ] writeData [31:0] $end
    $var wire  5 i writeReg [4:0] $end
   $upscope $end
   $scope module m_ShiftLeftOne $end
    $var wire 32 + i [31:0] $end
    $var wire 32 # o [31:0] $end
   $upscope $end
  $upscope $end
 $upscope $end
$enddefinitions $end


#0
b00000000000000000000000000000000 #
b00000000000000000000000000000000 $
b00000000000000000000000000000000 %
b0000 &
b00000000000000000000000000000000 '
b00000000000000000000000000000000 (
b00000000000000000000000000000000 )
b00000000000000000000000000000000 *
b00000000000000000000000000000000 +
b000 ,
b00 -
0.
0/
00
01
b00000000000000000000000000000000 2
b00000000000000000000000000000000 3
04
05
06
b000000 7
08
b00000000000000000000000000000000 9
b00000000000000000000000000000000 :
b00000000000000000000000000000000 ;
b00000000000000000000000000000000 <
b00000000000000000000000000000000 =
b00000000000000000000000000000000 >
b00000000000000000000000000000000 ?
b00000000000000000000000000000000 @
b00000000000000000000000000000000 A
b00000000000000000000000000000000 B
b00000000000000000000000000000000 C
b00000000000000000000000000000000 D
b00000000000000000000000000000000 E
b00000000000000000000000000000000 F
b00000000000000000000000000000000 G
b00000000000000000000000000000000 H
b00000000000000000000000000000000 I
b00000000000000000000000000000000 J
b00000000000000000000000000000000 K
b00000000000000000000000000000000 L
b00000000000000000000000000000000 M
b00000000000000000000000000000000 N
b00000000000000000000000000000000 O
b00000000000000000000000000000000 P
b00000000000000000000000000000000 Q
b00000000000000000000000000000000 R
b00000000000000000000000000000000 S
b00000000000000000000000000000000 T
b00000000000000000000000000000000 U
b00000000000000000000000000000000 V
b00000000000000000000000000000000 W
b00000000000000000000000000000000 X
b00000000000000000000000000000000 Y
b00000000000000000000000000000100 Z
b00001010001100000000010000010011 [
b00000000000000000000000000000000 \
b00000000000000000000000000000000 ]
b00000000000000000000000000000000 ^
0_
0`
0a
0b
b00000000000000000000000000000000 c
b00000000000000000000000000000000 d
0e
0f
b00000 g
b00000 h
b00000 i
b0000000 j
b000 k
0l
b00000 m
b00000 n
b00000 o
b00000000000000000000000000000000 p
b00 q
0r
0s
0t
0u
0v
0w
1x
0y
b00000000000000000000000000000000 z
0{
0|
1}
b00000000000000000000000000000000 ~
b00000000000000000000000000000000 !!
b00000000000000000000000000000000 "!
b00000000000000000000000000000000 #!
b00000000000000000000000000000000 $!
b00000000000000000000000000000000 %!
b00000000000000000000000000000000 &!
b00000000000000000000000000000000 '!
b00000000000000000000000000000000 (!
b00000000000000000000000000000000 )!
b00000000000000000000000000000000 *!
b00000000000000000000000000000000 +!
b00000000000000000000000000000000 ,!
b00000000000000000000000000000000 -!
b00000000000000000000000000000000 .!
b00000000000000000000000000000000 /!
b00000000000000000000000000000000 0!
b00000000000000000000000000000000 1!
b00000000000000000000000000000000 2!
b00000000000000000000000000000000 3!
b00000000000000000000000000000000 4!
b00000000000000000000000000000000 5!
b00000000000000000000000000000000 6!
b00000000000000000000000000000000 7!
b00000000000000000000000000000000 8!
b00000000000000000000000000000000 9!
b00000000000000000000000000000000 :!
b00000000000000000000000000000000 ;!
b00000000000000000000000000000000 <!
b00000000000000000000000000000000 =!
b00000000000000000000000000000000 >!
b00000000000000000000000000000000 ?!
b00000000000000000000000000000000 @!
b00000000000000000000000000000000 A!
b00000000000000000000000000000100 B!
b00000000000000000000000000000000 C!
b00000000000000000000000000000100 D!
b00000000000000000000000000100000 E!
#1
b00000000000000000000000010000000 ;
1|
0}
b00000000000000000000000010000000 "!
#2
0|
1}
#3
16
b00000000000000000000000000000100 Y
b00000000000000000000000000001000 Z
b11111111110000010000000100010011 [
b00000000000000000000000010100011 \
b00001010001100000000010000010011 ^
b0010011 j
b01000 m
b00011 o
b11 q
1v
1w
1|
b00000000000000000000000000001000 B!
#4
0|
#5
b00000000000000000000000101000110 #
b00000000000000000000000101000110 $
b00000000000000000000000010100011 %
b0001 &
b00000000000000000000000000000100 '
b00000000000000000000000010100011 +
b11 -
10
b110000 7
b00000000000000000000000000001000 Y
b00000000000000000000000000001100 Z
b00000000100000010010000000100011 [
b11111111111111111111111111111100 \
b11111111110000010000000100010011 ^
1_
b01000 g
1l
b00010 m
b00010 n
b11100 o
b00000000000000000000000010100011 p
0x
1|
b00000000000000000000000010000000 @!
b00000000000000000000000000001100 B!
#6
0|
#7
b11111111111111111111111111111000 #
b11111111111111111111111111111100 $
b11111111111111111111111111111100 %
b00000000000000000000000000001000 '
b00000000000000000000000000000100 (
b00000000000000000000000010000000 )
b11111111111111111111111111111100 +
11
b00000000000000000000000101000110 2
06
b111000 7
b00000000000000000000000000001100 Y
b00000000000000000000000000010000 Z
b00000000000000000000010000110011 [
b00000000000000000000000000000000 \
b00000000100000010010000000100011 ^
1b
b00010 g
b01000 h
b0100011 j
b010 k
0l
b00000 m
b01000 o
b00000000000000000000000001111100 p
b00 q
1u
0w
b00000000000000000000000010100011 z
1|
b00000000000000000000000000010000 B!
#8
0|
#9
b00000000000000000000000000000000 #
b00000000000000000000000000001000 $
b00000000000000000000000000000000 %
b00000000000000000000000000001100 '
b00000000000000000000000000001000 (
b00000000000000000000000000000000 +
b010 ,
b00 -
1.
01
b11111111111111111111111111111100 2
b000010 7
b00000000000000000000000000010000 Y
b00000000000000000000000000010100 Z
b00000000000000000000001010010011 [
b00000000000000000000000010100011 ]
b00000000000000000000010000110011 ^
0_
b00000000000000000000000010100011 d
1f
b00000 g
b00010 h
b01000 i
b0110011 j
b000 k
b01000 m
b00000 n
b00000 o
b00000000000000000000000010000000 p
b10 q
0u
0v
1w
b00000000000000000000000001111100 z
1|
b00000000000000000000000000000000 @!
b00000000000000000000000000010100 B!
#10
b00000000000000000000000010100011 A
0|
b00000000000000000000000010100011 (!
#11
b00000000000000000000000000001100 $
b00000000000000000000000000010000 '
b00000000000000000000000000001100 (
b00000000000000000000000000000000 )
b000 ,
b10 -
0.
00
b00000000000000000000000000001000 2
14
b100000 7
b00000000000000000000000000010100 Y
b00000000000000000000000000011000 Z
b00000000001000101010001100110011 [
b00000000000000000000000001111100 ]
b00000000000000000000001010010011 ^
1_
0b
b00000000000000000000000001111100 d
b01000 g
b00000 h
b00010 i
b0010011 j
b00101 m
b00000000000000000000000000000000 p
b11 q
1v
1x
b00000000000000000000000010000000 z
1|
b00000000000000000000000000011000 B!
#12
b00000000000000000000000001111100 ;
0|
b00000000000000000000000001111100 "!
#13
b00000000000000000000000000010000 $
b00000000000000000000000000010100 '
b00000000000000000000000000010000 (
b11 -
10
b00000000000000000000000000001100 2
04
16
b110000 7
b00000000000000000000000000011000 Y
b00000000000000000000000000011100 Z
b00000000000100101000001010010011 [
b00000000000000000000000010000000 ]
b00000000001000101010001100110011 ^
1b
b00000000000000000000000010000000 d
0f
b00101 g
b01000 h
b00000 i
b0110011 j
b010 k
b00110 m
b00101 n
b00010 o
b10 q
0v
b00000000000000000000000000000000 z
1|
b00000000000000000000000001111100 A!
b00000000000000000000000000011100 B!
#14
0|
#15
b00000000000000000000000000010100 $
b00000000000000000000000001111100 %
b0110 &
b00000000000000000000000000011000 '
b00000000000000000000000000010100 (
b00000000000000000000000001111100 *
b010 ,
b10 -
00
b00000000000000000000000000010000 2
b100010 7
b00000000000000000000000000011100 Y
b00000000000000000000000000100000 Z
b00000000000000000000000000010011 [
b00000000000000000000000000000001 \
b00000000000000000000000000000000 ]
b00000000000100101000001010010011 ^
b00000000000000000000000000000000 d
1f
b00110 g
b00101 h
b01000 i
b0010011 j
b000 k
b00101 m
b00001 o
b00000000000000000000000000000001 p
b11 q
1v
0x
1|
b00000000000000000000000000000000 A!
b00000000000000000000000000100000 B!
#16
b00000000000000000000000000000000 A
0|
b00000000000000000000000000000000 (!
#17
b00000000000000000000000000000010 #
b00000000000000000000000000011010 $
b00000000000000000000000000000001 %
b0001 &
b00000000000000000000000000011100 '
b00000000000000000000000000011000 (
b00000000000000000000000000000000 *
b00000000000000000000000000000001 +
b000 ,
b11 -
10
b00000000000000000000000000010100 2
b00000000000000000000000001111100 3
06
b110000 7
b00000000000000000000000000100000 Y
b00000000000000000000000000100100 Z
b00000000000000000000000000000000 \
b00000000000000000000000000010011 ^
b00101 g
b00110 h
b00101 i
b00000 m
b00000 n
b00000 o
b00000000000000000000000000000001 z
1|
b00000000000000000000000000100100 B!
#18
0|
#19
b00000000000000000000000000000000 #
b00000000000000000000000000011100 $
b00000000000000000000000000000000 %
b00000000000000000000000000100000 '
b00000000000000000000000000011100 (
b00000000000000000000000000000000 +
b00000000000000000000000000011010 2
b00000000000000000000000000000000 3
b00000000000000000000000000100100 Y
b00000000000000000000000000101000 Z
b00000000000000000000000000000001 ]
b00000000000000000000000000000001 d
b00000 g
b00101 h
b00110 i
b00000000000000000000000000000000 p
1x
1|
b00000000000000000000000000101000 B!
#20
b00000000000000000000000000000001 ?
0|
b00000000000000000000000000000001 &!
#21
b00000000000000000000000000100000 $
b00000000000000000000000000100100 '
b00000000000000000000000000100000 (
b00000000000000000000000000011100 2
16
b00000000000000000000000000101000 Y
b00000000000000000000000000101100 Z
b00000 h
b00101 i
b00000000000000000000000000000000 z
1|
b00000000000000000000000000101100 B!
#22
b00000000000000000000000000000001 >
0|
b00000000000000000000000000000001 %!
#23
b00000000000000000000000000100100 $
b00000000000000000000000000101000 '
b00000000000000000000000000100100 (
b00000000000000000000000000100000 2
b00000000000000000000000000101100 Y
b00000000000000000000000000110000 Z
b00000000001000110110001100110011 [
b00000000000000000000000000000000 ]
b00000000000000000000000000000000 d
b00000 i
1|
b00000000000000000000000000110000 B!
#24
0|
#25
b00000000000000000000000000101000 $
b00000000000000000000000000101100 '
b00000000000000000000000000101000 (
b00000000000000000000000000100100 2
b00000000000000000000000000110000 Y
b00000000000000000000000000110100 Z
b00000000000000010010010000000011 [
b00000000001000110110001100110011 ^
b0110011 j
b110 k
b00110 m
b00110 n
b00010 o
b10 q
0v
1|
b00000000000000000000000000000001 @!
b00000000000000000000000001111100 A!
b00000000000000000000000000110100 B!
#26
0|
#27
b00000000000000000000000000101100 $
b00000000000000000000000001111100 %
b1000 &
b00000000000000000000000000110000 '
b00000000000000000000000000101100 (
b00000000000000000000000000000001 )
b00000000000000000000000001111100 *
b110 ,
b10 -
00
b00000000000000000000000000101000 2
b100110 7
b00000000000000000000000000110100 Y
b00000000000000000000000000111000 Z
b00000000010000010000000100010011 [
b00000000000000010010010000000011 ^
b00110 g
b0000011 j
b010 k
b01000 m
b00010 n
b00000 o
b00000000000000000000000001111101 p
b00 q
1s
1t
1v
0x
1|
b00000000000000000000000001111100 @!
b00000000000000000000000000000000 A!
b00000000000000000000000000111000 B!
#28
0|
#29
b00000000000000000000000000110000 $
b00000000000000000000000000000000 %
b0001 &
b00000000000000000000000000110100 '
b00000000000000000000000000110000 (
b00000000000000000000000001111100 )
b00000000000000000000000000000000 *
b010 ,
b00 -
10
b00000000000000000000000000101100 2
b00000000000000000000000001111100 3
06
b000010 7
b00000000000000000000000000111000 Y
b00000000000000000000000000111100 Z
b00000000000000000000000000000000 [
b00000000000000000000000000000100 \
b00000000010000010000000100010011 ^
1`
b01000 g
b00110 h
b0010011 j
b000 k
b00010 m
b00100 o
b00000000000000000000000001111100 p
b11 q
0s
0t
1y
b00000000000000000000000001111101 z
1|
b00000000000000000000000000111100 B!
#30
0|
#31
b00000000000000000000000000001000 #
b00000000000000000000000000111100 $
b00000000000000000000000000000100 %
b00000000000000000000000000111000 '
b00000000000000000000000000110100 (
b00000000000000000000000000000100 +
b000 ,
b11 -
b00000000000000000000000000110000 2
b00000000000000000000000000000000 3
b110000 7
b00000000000000000000000000111100 Y
b00000000000000000000000001000000 Z
b00000000000000000000000000000000 \
b00000000000000000000000001111101 ]
b00000000000000000000000000000000 ^
0`
1a
b00000000000000000000000001111101 d
b00010 g
b01000 h
b00110 i
b0000000 j
b00000 m
b00000 n
b00000 o
b00000000000000000000000010000000 p
0y
b00000000000000000000000001111100 z
1{
1|
b00000000000000000000000000000000 @!
b00000000000000000000000001000000 B!
#32
b00000000000000000000000001111101 ?
0|
b00000000000000000000000001111101 &!
#33
b00000000000000000000000000000000 #
b00000000000000000000000000111000 $
b00000000000000000000000000000000 %
b00000000000000000000000000111100 '
b00000000000000000000000000111000 (
b00000000000000000000000000000000 )
b00000000000000000000000000000000 +
b00000000000000000000000000111100 2
b00000000000000000000000001000000 Y
b00000000000000000000000001000100 Z
b00000000000000000000000000000000 ]
0a
b00000000000000000000000001111100 d
1e
b00000 g
b00010 h
b01000 i
b00000000000000000000000000000000 p
1x
b00000000000000000000000010000000 z
0{
1|
b00000000000000000000000001000100 B!
#34
0|
#35
b00000000000000000000000000111100 $
b00000000000000000000000001000000 '
b00000000000000000000000000111100 (
b00000000000000000000000000111000 2
16
b00000000000000000000000001000100 Y
b00000000000000000000000001001000 Z
b00000000000000000000000010000000 ]
b00000000000000000000000010000000 d
0e
b00000 h
b00010 i
b00000000000000000000000000000000 z
1|
b00000000000000000000000001001000 B!
#36
b00000000000000000000000010000000 ;
0|
b00000000000000000000000010000000 "!
#37
b00000000000000000000000001000000 $
b00000000000000000000000001000100 '
b00000000000000000000000001000000 (
b00000000000000000000000000111100 2
b00000000000000000000000001001000 Y
b00000000000000000000000001001100 Z
b00000000000000000000000000000000 ]
b00000000000000000000000000000000 d
b00000 i
1|
b00000000000000000000000001001100 B!
#38
0|
#39
b00000000000000000000000001000100 $
b00000000000000000000000001001000 '
b00000000000000000000000001000100 (
b00000000000000000000000001000000 2
b00000000000000000000000001001100 Y
b00000000000000000000000001010000 Z
1|
b00000000000000000000000001010000 B!
#40
0|
#41
b00000000000000000000000001001000 $
b00000000000000000000000001001100 '
b00000000000000000000000001001000 (
b00000000000000000000000001000100 2
b00000000000000000000000001010000 Y
b00000000000000000000000001010100 Z
1|
b00000000000000000000000001010100 B!
#42
0|
#43
b00000000000000000000000001001100 $
b00000000000000000000000001010000 '
b00000000000000000000000001001100 (
b00000000000000000000000001001000 2
b00000000000000000000000001010100 Y
b00000000000000000000000001011000 Z
1|
b00000000000000000000000001011000 B!
#44
0|
#45
b00000000000000000000000001010000 $
b00000000000000000000000001010100 '
b00000000000000000000000001010000 (
b00000000000000000000000001001100 2
b00000000000000000000000001011000 Y
b00000000000000000000000001011100 Z
1|
b00000000000000000000000001011100 B!
#46
0|
#47
b00000000000000000000000001010100 $
b00000000000000000000000001011000 '
b00000000000000000000000001010100 (
b00000000000000000000000001010000 2
b00000000000000000000000001011100 Y
b00000000000000000000000001100000 Z
1|
b00000000000000000000000001100000 B!
#48
0|
#49
b00000000000000000000000001011000 $
b00000000000000000000000001011100 '
b00000000000000000000000001011000 (
b00000000000000000000000001010100 2
b00000000000000000000000001100000 Y
b00000000000000000000000001100100 Z
1|
b00000000000000000000000001100100 B!
#50
0|
#51
b00000000000000000000000001011100 $
b00000000000000000000000001100000 '
b00000000000000000000000001011100 (
b00000000000000000000000001011000 2
b00000000000000000000000001100100 Y
b00000000000000000000000001101000 Z
1|
b00000000000000000000000001101000 B!
#52
0|
#53
b00000000000000000000000001100000 $
b00000000000000000000000001100100 '
b00000000000000000000000001100000 (
b00000000000000000000000001011100 2
b00000000000000000000000001101000 Y
b00000000000000000000000001101100 Z
1|
b00000000000000000000000001101100 B!
#54
0|
#55
b00000000000000000000000001100100 $
b00000000000000000000000001101000 '
b00000000000000000000000001100100 (
b00000000000000000000000001100000 2
b00000000000000000000000001101100 Y
b00000000000000000000000001110000 Z
1|
b00000000000000000000000001110000 B!
#56
0|
#57
b00000000000000000000000001101000 $
b00000000000000000000000001101100 '
b00000000000000000000000001101000 (
b00000000000000000000000001100100 2
b00000000000000000000000001110000 Y
b00000000000000000000000001110100 Z
1|
b00000000000000000000000001110100 B!
#58
0|
#59
b00000000000000000000000001101100 $
b00000000000000000000000001110000 '
b00000000000000000000000001101100 (
b00000000000000000000000001101000 2
b00000000000000000000000001110100 Y
b00000000000000000000000001111000 Z
1|
b00000000000000000000000001111000 B!
#60
0|
#61
b00000000000000000000000001110000 $
b00000000000000000000000001110100 '
b00000000000000000000000001110000 (
b00000000000000000000000001101100 2
b00000000000000000000000001111000 Y
b00000000000000000000000001111100 Z
1|
b00000000000000000000000001111100 B!
#62
0|
#63
b00000000000000000000000001110100 $
b00000000000000000000000001111000 '
b00000000000000000000000001110100 (
b00000000000000000000000001110000 2
b00000000000000000000000001111100 Y
b00000000000000000000000010000000 Z
1|
b00000000000000000000000010000000 B!
#64
0|
#65
b00000000000000000000000001111000 $
b00000000000000000000000001111100 '
b00000000000000000000000001111000 (
b00000000000000000000000001110100 2
b00000000000000000000000010000000 Y
b00000000000000000000000010000100 Z
1|
b00000000000000000000000010000100 B!
#66
0|
#67
b00000000000000000000000001111100 $
b00000000000000000000000010000000 '
b00000000000000000000000001111100 (
b00000000000000000000000001111000 2
b00000000000000000000000010000100 Y
b00000000000000000000000010001000 Z
1|
b00000000000000000000000010001000 B!
#68
0|
#69
b00000000000000000000000010000000 $
b00000000000000000000000010000100 '
b00000000000000000000000010000000 (
b00000000000000000000000001111100 2
b00000000000000000000000010001000 Y
b00000000000000000000000010001100 Z
1|
b00000000000000000000000010001100 B!
#70
0|
